<svg width="1010" height="306" viewBox="0 0 1010 306" fill="none" xmlns="http://www.w3.org/2000/svg">
    <path fill-rule="evenodd" clip-rule="evenodd" d="M385.607 41C383.628 41 382.851 43.5664 384.498 44.6641L403.001 56.9995V97C403.001 110.255 413.746 121 427.001 121H588.001C601.256 121 612.001 110.255 612.001 97V65C612.001 51.7452 601.256 41 588.001 41H435.002H407.001H385.607Z" fill="currentColor"/>
    <path d="M454.476 75V60.6H456.276L463.786 71.85V60.6H465.586V75H463.786L456.276 63.74V75H454.476ZM473.062 75.3C472.002 75.3 471.076 75.0667 470.282 74.6C469.496 74.1267 468.882 73.47 468.442 72.63C468.002 71.7833 467.782 70.7967 467.782 69.67C467.782 68.49 467.999 67.47 468.432 66.61C468.866 65.7433 469.469 65.0767 470.242 64.61C471.022 64.1367 471.936 63.9 472.982 63.9C474.069 63.9 474.992 64.15 475.752 64.65C476.519 65.15 477.092 65.8633 477.472 66.79C477.859 67.7167 478.026 68.82 477.972 70.1H476.172V69.46C476.152 68.1333 475.882 67.1433 475.362 66.49C474.842 65.83 474.069 65.5 473.042 65.5C471.942 65.5 471.106 65.8533 470.532 66.56C469.959 67.2667 469.672 68.28 469.672 69.6C469.672 70.8733 469.959 71.86 470.532 72.56C471.106 73.26 471.922 73.61 472.982 73.61C473.696 73.61 474.316 73.4467 474.842 73.12C475.369 72.7933 475.782 72.3233 476.082 71.71L477.792 72.3C477.372 73.2533 476.739 73.9933 475.892 74.52C475.052 75.04 474.109 75.3 473.062 75.3ZM469.072 70.1V68.67H477.052V70.1H469.072ZM482.108 75L478.808 64.19L480.578 64.2L482.988 72.1L485.418 64.2H486.988L489.408 72.1L491.828 64.2H493.588L490.288 75H488.808L486.198 66.79L483.588 75H482.108ZM501.698 75L498.398 64.19L500.168 64.2L502.578 72.1L505.008 64.2H506.578L508.998 72.1L511.418 64.2H513.178L509.878 75H508.398L505.788 66.79L503.178 75H501.698ZM515.184 62.29V60.45H516.964V62.29H515.184ZM515.184 75V64.2H516.964V75H515.184ZM527.654 75V69.59C527.654 69.0767 527.608 68.5833 527.514 68.11C527.428 67.6367 527.271 67.2133 527.044 66.84C526.824 66.46 526.524 66.16 526.144 65.94C525.771 65.72 525.298 65.61 524.724 65.61C524.278 65.61 523.871 65.6867 523.504 65.84C523.144 65.9867 522.834 66.2133 522.574 66.52C522.314 66.8267 522.111 67.2133 521.964 67.68C521.824 68.14 521.754 68.6833 521.754 69.31L520.584 68.95C520.584 67.9033 520.771 67.0067 521.144 66.26C521.524 65.5067 522.054 64.93 522.734 64.53C523.421 64.1233 524.228 63.92 525.154 63.92C525.854 63.92 526.451 64.03 526.944 64.25C527.438 64.47 527.848 64.7633 528.174 65.13C528.501 65.49 528.758 65.8967 528.944 66.35C529.131 66.7967 529.261 67.2533 529.334 67.72C529.414 68.18 529.454 68.6167 529.454 69.03V75H527.654ZM519.954 75V64.2H521.554V67.09H521.754V75H519.954ZM539.744 75V69.59C539.744 69.0767 539.698 68.5833 539.604 68.11C539.518 67.6367 539.361 67.2133 539.134 66.84C538.914 66.46 538.614 66.16 538.234 65.94C537.861 65.72 537.388 65.61 536.814 65.61C536.368 65.61 535.961 65.6867 535.594 65.84C535.234 65.9867 534.924 66.2133 534.664 66.52C534.404 66.8267 534.201 67.2133 534.054 67.68C533.914 68.14 533.844 68.6833 533.844 69.31L532.674 68.95C532.674 67.9033 532.861 67.0067 533.234 66.26C533.614 65.5067 534.144 64.93 534.824 64.53C535.511 64.1233 536.318 63.92 537.244 63.92C537.944 63.92 538.541 64.03 539.034 64.25C539.528 64.47 539.938 64.7633 540.264 65.13C540.591 65.49 540.848 65.8967 541.034 66.35C541.221 66.7967 541.351 67.2533 541.424 67.72C541.504 68.18 541.544 68.6167 541.544 69.03V75H539.744ZM532.044 75V64.2H533.644V67.09H533.844V75H532.044ZM548.726 75.3C547.666 75.3 546.74 75.0667 545.946 74.6C545.16 74.1267 544.546 73.47 544.106 72.63C543.666 71.7833 543.446 70.7967 543.446 69.67C543.446 68.49 543.663 67.47 544.096 66.61C544.53 65.7433 545.133 65.0767 545.906 64.61C546.686 64.1367 547.6 63.9 548.646 63.9C549.733 63.9 550.656 64.15 551.416 64.65C552.183 65.15 552.756 65.8633 553.136 66.79C553.523 67.7167 553.69 68.82 553.636 70.1H551.836V69.46C551.816 68.1333 551.546 67.1433 551.026 66.49C550.506 65.83 549.733 65.5 548.706 65.5C547.606 65.5 546.77 65.8533 546.196 66.56C545.623 67.2667 545.336 68.28 545.336 69.6C545.336 70.8733 545.623 71.86 546.196 72.56C546.77 73.26 547.586 73.61 548.646 73.61C549.36 73.61 549.98 73.4467 550.506 73.12C551.033 72.7933 551.446 72.3233 551.746 71.71L553.456 72.3C553.036 73.2533 552.403 73.9933 551.556 74.52C550.716 75.04 549.773 75.3 548.726 75.3ZM544.736 70.1V68.67H552.716V70.1H544.736ZM555.863 75V64.2H557.453V66.81L557.193 66.47C557.32 66.1367 557.483 65.83 557.683 65.55C557.89 65.27 558.12 65.04 558.373 64.86C558.653 64.6333 558.97 64.46 559.323 64.34C559.676 64.22 560.036 64.15 560.403 64.13C560.77 64.1033 561.113 64.1267 561.433 64.2V65.87C561.06 65.77 560.65 65.7433 560.203 65.79C559.756 65.8367 559.343 66 558.963 66.28C558.616 66.5267 558.346 66.8267 558.153 67.18C557.966 67.5333 557.836 67.9167 557.763 68.33C557.69 68.7367 557.653 69.1533 557.653 69.58V75H555.863ZM462.809 103.3C461.749 103.3 460.822 103.067 460.029 102.6C459.242 102.127 458.629 101.47 458.189 100.63C457.749 99.7833 457.529 98.7967 457.529 97.67C457.529 96.49 457.745 95.47 458.179 94.61C458.612 93.7433 459.215 93.0767 459.989 92.61C460.769 92.1367 461.682 91.9 462.729 91.9C463.815 91.9 464.739 92.15 465.499 92.65C466.265 93.15 466.839 93.8633 467.219 94.79C467.605 95.7167 467.772 96.82 467.719 98.1H465.919V97.46C465.899 96.1333 465.629 95.1433 465.109 94.49C464.589 93.83 463.815 93.5 462.789 93.5C461.689 93.5 460.852 93.8533 460.279 94.56C459.705 95.2667 459.419 96.28 459.419 97.6C459.419 98.8733 459.705 99.86 460.279 100.56C460.852 101.26 461.669 101.61 462.729 101.61C463.442 101.61 464.062 101.447 464.589 101.12C465.115 100.793 465.529 100.323 465.829 99.71L467.539 100.3C467.119 101.253 466.485 101.993 465.639 102.52C464.799 103.04 463.855 103.3 462.809 103.3ZM458.819 98.1V96.67H466.799V98.1H458.819ZM472.474 103L468.554 92.2H470.354L473.384 100.73L476.404 92.2H478.214L474.294 103H472.474ZM484.312 103.3C483.252 103.3 482.326 103.067 481.532 102.6C480.746 102.127 480.132 101.47 479.692 100.63C479.252 99.7833 479.032 98.7967 479.032 97.67C479.032 96.49 479.249 95.47 479.682 94.61C480.116 93.7433 480.719 93.0767 481.492 92.61C482.272 92.1367 483.186 91.9 484.232 91.9C485.319 91.9 486.242 92.15 487.002 92.65C487.769 93.15 488.342 93.8633 488.722 94.79C489.109 95.7167 489.276 96.82 489.222 98.1H487.422V97.46C487.402 96.1333 487.132 95.1433 486.612 94.49C486.092 93.83 485.319 93.5 484.292 93.5C483.192 93.5 482.356 93.8533 481.782 94.56C481.209 95.2667 480.922 96.28 480.922 97.6C480.922 98.8733 481.209 99.86 481.782 100.56C482.356 101.26 483.172 101.61 484.232 101.61C484.946 101.61 485.566 101.447 486.092 101.12C486.619 100.793 487.032 100.323 487.332 99.71L489.042 100.3C488.622 101.253 487.989 101.993 487.142 102.52C486.302 103.04 485.359 103.3 484.312 103.3ZM480.322 98.1V96.67H488.302V98.1H480.322ZM491.449 103V92.2H493.039V94.81L492.779 94.47C492.905 94.1367 493.069 93.83 493.269 93.55C493.475 93.27 493.705 93.04 493.959 92.86C494.239 92.6333 494.555 92.46 494.909 92.34C495.262 92.22 495.622 92.15 495.989 92.13C496.355 92.1033 496.699 92.1267 497.019 92.2V93.87C496.645 93.77 496.235 93.7433 495.789 93.79C495.342 93.8367 494.929 94 494.549 94.28C494.202 94.5267 493.932 94.8267 493.739 95.18C493.552 95.5333 493.422 95.9167 493.349 96.33C493.275 96.7367 493.239 97.1533 493.239 97.58V103H491.449ZM500.214 107.8L502.304 102.12L502.334 103.8L497.614 92.2H499.484L503.184 101.53H502.544L506.014 92.2H507.824L501.944 107.8H500.214ZM518.39 103.3C517.477 103.3 516.647 103.08 515.9 102.64C515.16 102.2 514.57 101.6 514.13 100.84C513.697 100.073 513.48 99.21 513.48 98.25V93.46C513.48 92.4533 513.697 91.5633 514.13 90.79C514.57 90.01 515.17 89.4033 515.93 88.97C516.697 88.53 517.57 88.31 518.55 88.31C519.343 88.31 520.08 88.4733 520.76 88.8C521.447 89.12 522.023 89.5833 522.49 90.19L521.16 91.37C520.873 90.95 520.5 90.6167 520.04 90.37C519.58 90.1233 519.083 90 518.55 90C517.917 90 517.353 90.1533 516.86 90.46C516.373 90.76 515.99 91.16 515.71 91.66C515.43 92.1533 515.29 92.6867 515.29 93.26V96.15L514.9 95.71C515.32 95.11 515.853 94.63 516.5 94.27C517.147 93.91 517.847 93.73 518.6 93.73C519.493 93.73 520.293 93.94 521 94.36C521.713 94.78 522.273 95.35 522.68 96.07C523.093 96.7833 523.3 97.5867 523.3 98.48C523.3 99.3733 523.077 100.183 522.63 100.91C522.183 101.637 521.587 102.217 520.84 102.65C520.1 103.083 519.283 103.3 518.39 103.3ZM518.39 101.58C518.963 101.58 519.487 101.443 519.96 101.17C520.433 100.89 520.807 100.517 521.08 100.05C521.36 99.5767 521.5 99.0533 521.5 98.48C521.5 97.9067 521.36 97.3833 521.08 96.91C520.807 96.4367 520.433 96.0633 519.96 95.79C519.493 95.51 518.973 95.37 518.4 95.37C517.827 95.37 517.303 95.51 516.83 95.79C516.363 96.0633 515.99 96.4367 515.71 96.91C515.43 97.3833 515.29 97.9067 515.29 98.48C515.29 99.0467 515.427 99.5667 515.7 100.04C515.98 100.507 516.353 100.88 516.82 101.16C517.293 101.44 517.817 101.58 518.39 101.58ZM537.596 103V97.59C537.596 97.0767 537.549 96.5833 537.456 96.11C537.369 95.6367 537.213 95.2133 536.986 94.84C536.766 94.46 536.466 94.16 536.086 93.94C535.713 93.72 535.239 93.61 534.666 93.61C534.219 93.61 533.813 93.6867 533.446 93.84C533.086 93.9867 532.776 94.2133 532.516 94.52C532.256 94.8267 532.053 95.2133 531.906 95.68C531.766 96.14 531.696 96.6833 531.696 97.31L530.526 96.95C530.526 95.9033 530.713 95.0067 531.086 94.26C531.466 93.5067 531.996 92.93 532.676 92.53C533.363 92.1233 534.169 91.92 535.096 91.92C535.796 91.92 536.393 92.03 536.886 92.25C537.379 92.47 537.789 92.7633 538.116 93.13C538.443 93.49 538.699 93.8967 538.886 94.35C539.073 94.7967 539.203 95.2533 539.276 95.72C539.356 96.18 539.396 96.6167 539.396 97.03V103H537.596ZM529.896 103V88.6H531.496V96.55H531.696V103H529.896ZM541.996 103V92.2H543.586V94.81L543.326 94.47C543.452 94.1367 543.616 93.83 543.816 93.55C544.022 93.27 544.252 93.04 544.506 92.86C544.786 92.6333 545.102 92.46 545.456 92.34C545.809 92.22 546.169 92.15 546.536 92.13C546.902 92.1033 547.246 92.1267 547.566 92.2V93.87C547.192 93.77 546.782 93.7433 546.336 93.79C545.889 93.8367 545.476 94 545.096 94.28C544.749 94.5267 544.479 94.8267 544.286 95.18C544.099 95.5333 543.969 95.9167 543.896 96.33C543.822 96.7367 543.786 97.1533 543.786 97.58V103H541.996ZM553.146 103.29C551.859 103.29 550.803 103.01 549.976 102.45C549.156 101.883 548.653 101.093 548.466 100.08L550.286 99.79C550.433 100.377 550.769 100.843 551.296 101.19C551.823 101.53 552.476 101.7 553.256 101.7C553.996 101.7 554.576 101.547 554.996 101.24C555.416 100.933 555.626 100.517 555.626 99.99C555.626 99.6833 555.556 99.4367 555.416 99.25C555.276 99.0567 554.986 98.8767 554.546 98.71C554.113 98.5433 553.456 98.3433 552.576 98.11C551.623 97.8567 550.873 97.5933 550.326 97.32C549.779 97.0467 549.389 96.73 549.156 96.37C548.923 96.01 548.806 95.5733 548.806 95.06C548.806 94.4267 548.979 93.8733 549.326 93.4C549.673 92.92 550.156 92.55 550.776 92.29C551.403 92.03 552.129 91.9 552.956 91.9C553.776 91.9 554.509 92.03 555.156 92.29C555.803 92.55 556.323 92.92 556.716 93.4C557.116 93.8733 557.353 94.4267 557.426 95.06L555.606 95.39C555.519 94.81 555.239 94.3533 554.766 94.02C554.299 93.6867 553.696 93.51 552.956 93.49C552.256 93.4633 551.686 93.5867 551.246 93.86C550.813 94.1333 550.596 94.5033 550.596 94.97C550.596 95.23 550.676 95.4533 550.836 95.64C551.003 95.8267 551.306 96.0033 551.746 96.17C552.193 96.3367 552.839 96.5267 553.686 96.74C554.639 96.98 555.389 97.2433 555.936 97.53C556.489 97.81 556.883 98.1433 557.116 98.53C557.349 98.91 557.466 99.38 557.466 99.94C557.466 100.98 557.083 101.8 556.316 102.4C555.549 102.993 554.493 103.29 553.146 103.29Z" fill="#F8F7F8"/>
    <path d="M30.692 30V15.084L27.44 17.052V14.664L30.692 12.72H32.864V30H30.692Z" fill="#F8F7F8"/>
    <rect x="0.5" y="0.5" width="362" height="101" rx="31.5" fill="#F8F7F8"/>
    <path d="M35.9 59V47.56L33.2 49.22V46.22L35.9 44.6H38.68V59H35.9Z" fill="url(#paint0_linear_735_14106)"/>
    <path d="M54.0429 45.9338L58.7518 62.2765C58.8755 62.7059 59.2547 63 59.6847 63H80.3153C80.7453 63 81.1245 62.7059 81.2482 62.2765L85.9571 45.9338C86.1954 45.1066 85.398 44.3662 84.6377 44.7089L79.421 47.0602C79.0635 47.2213 78.6484 47.1449 78.3654 46.8659L70.6692 39.2777C70.2937 38.9074 69.7063 38.9074 69.3308 39.2777L61.6346 46.8659C61.3516 47.1449 60.9365 47.2213 60.579 47.0602L55.3623 44.7089C54.602 44.3662 53.8046 45.1066 54.0429 45.9338Z" fill="url(#paint1_linear_735_14106)"/>
    <g clip-path="url(#clip0_735_14106)">
        <circle cx="118" cy="51" r="12" fill="#FC9C03"/>
        <path d="M103.5 43.5L127 44.5L134 46L133 58L113 66.5L102.5 58L103.5 43.5Z" fill="#1576F2"/>
        <path d="M103.984 58L127.111 58.3478L134 58.8696L133.016 63.0435L113.333 66L103 63.0435L103.984 58Z" fill="#01738C"/>
        <path d="M103.5 43.5L132 40.5L131 47L109.5 52.5L103.5 43.5Z" fill="#C71431"/>
    </g>
    <path d="M139.164 52.4141C139.164 53.5651 139.482 54.4896 140.117 55.1875C140.758 55.8802 141.646 56.2292 142.781 56.2344C143.906 56.2344 144.792 55.8854 145.438 55.1875C146.083 54.4896 146.406 53.5651 146.406 52.4141V48.2109C146.406 47.0599 146.083 46.1354 145.438 45.4375C144.792 44.7396 143.906 44.3906 142.781 44.3906C141.646 44.3906 140.758 44.7396 140.117 45.4375C139.482 46.1354 139.164 47.0599 139.164 48.2109V52.4141ZM140.648 52.4922V48.1328C140.648 47.3932 140.823 46.7891 141.172 46.3203C141.521 45.8464 142.057 45.6094 142.781 45.6094C143.51 45.6094 144.049 45.8464 144.398 46.3203C144.747 46.7891 144.922 47.3932 144.922 48.1328V52.4922C144.922 53.2318 144.747 53.8385 144.398 54.3125C144.049 54.7812 143.51 55.0156 142.781 55.0156C142.057 55.0156 141.521 54.7812 141.172 54.3125C140.823 53.8385 140.648 53.2318 140.648 52.4922ZM147.414 56H149.023L151.484 52.2344H151.57L154.516 47.8281H152.906L150.602 51.4766L150.508 51.4844L147.414 56ZM147.57 47.8281L150.516 52.2344L150.578 52.2422L153.039 56H154.664L151.57 51.4844L151.508 51.4766L149.203 47.8281H147.57ZM155.617 52.9844C155.617 54.0156 155.971 54.8151 156.68 55.3828C157.393 55.9505 158.268 56.2344 159.305 56.2344C160.341 56.2344 161.211 55.9505 161.914 55.3828C162.622 54.8151 162.977 54.0156 162.977 52.9844C162.977 52.3021 162.789 51.7214 162.414 51.2422C162.044 50.7578 161.57 50.401 160.992 50.1719V50.1406C161.435 49.9219 161.815 49.5859 162.133 49.1328C162.456 48.6797 162.617 48.138 162.617 47.5078C162.617 46.5599 162.297 45.8047 161.656 45.2422C161.021 44.6745 160.237 44.3906 159.305 44.3906C158.372 44.3906 157.583 44.6771 156.938 45.25C156.297 45.8177 155.977 46.5703 155.977 47.5078C155.977 48.138 156.135 48.6797 156.453 49.1328C156.776 49.5807 157.161 49.9167 157.609 50.1406V50.1719C157.031 50.401 156.555 50.7578 156.18 51.2422C155.805 51.7266 155.617 52.3073 155.617 52.9844ZM157.055 52.9062C157.055 52.276 157.26 51.7656 157.672 51.375C158.083 50.9844 158.628 50.7891 159.305 50.7891C159.982 50.7891 160.521 50.9844 160.922 51.375C161.328 51.7656 161.531 52.276 161.531 52.9062C161.531 53.5365 161.328 54.0469 160.922 54.4375C160.521 54.8229 159.982 55.0156 159.305 55.0156C158.628 55.0156 158.083 54.8229 157.672 54.4375C157.26 54.0469 157.055 53.5365 157.055 52.9062ZM157.391 47.5781C157.391 47 157.565 46.5286 157.914 46.1641C158.263 45.7943 158.727 45.6094 159.305 45.6094C159.883 45.6094 160.344 45.7943 160.688 46.1641C161.031 46.5286 161.203 47 161.203 47.5781C161.203 48.1562 161.029 48.6328 160.68 49.0078C160.336 49.3828 159.878 49.5703 159.305 49.5703C158.732 49.5703 158.268 49.3828 157.914 49.0078C157.565 48.6328 157.391 48.1562 157.391 47.5781ZM169.383 56H170.766V44.625H169.445L164.156 52.3516V53.3281H172.352V52.1094H170.359H169.773H165.836L169.289 46.9922H169.383V52.5V52.8906V56ZM173.984 55.2109C173.984 55.4766 174.07 55.7031 174.242 55.8906C174.414 56.0781 174.661 56.1719 174.984 56.1719C175.307 56.1719 175.555 56.0781 175.727 55.8906C175.898 55.7031 175.984 55.4766 175.984 55.2109C175.984 54.9401 175.898 54.7109 175.727 54.5234C175.555 54.3359 175.307 54.2422 174.984 54.2422C174.661 54.2422 174.414 54.3359 174.242 54.5234C174.07 54.7109 173.984 54.9401 173.984 55.2109ZM178.484 55.2109C178.484 55.4766 178.57 55.7031 178.742 55.8906C178.914 56.0781 179.161 56.1719 179.484 56.1719C179.807 56.1719 180.055 56.0781 180.227 55.8906C180.398 55.7031 180.484 55.4766 180.484 55.2109C180.484 54.9401 180.398 54.7109 180.227 54.5234C180.055 54.3359 179.807 54.2422 179.484 54.2422C179.161 54.2422 178.914 54.3359 178.742 54.5234C178.57 54.7109 178.484 54.9401 178.484 55.2109ZM182.586 52.4141C182.586 53.5651 182.904 54.4896 183.539 55.1875C184.18 55.8802 185.068 56.2292 186.203 56.2344C187.328 56.2344 188.214 55.8854 188.859 55.1875C189.505 54.4896 189.828 53.5651 189.828 52.4141V48.2109C189.828 47.0599 189.505 46.1354 188.859 45.4375C188.214 44.7396 187.328 44.3906 186.203 44.3906C185.068 44.3906 184.18 44.7396 183.539 45.4375C182.904 46.1354 182.586 47.0599 182.586 48.2109V52.4141ZM184.07 52.4922V48.1328C184.07 47.3932 184.245 46.7891 184.594 46.3203C184.943 45.8464 185.479 45.6094 186.203 45.6094C186.932 45.6094 187.471 45.8464 187.82 46.3203C188.169 46.7891 188.344 47.3932 188.344 48.1328V52.4922C188.344 53.2318 188.169 53.8385 187.82 54.3125C187.471 54.7812 186.932 55.0156 186.203 55.0156C185.479 55.0156 184.943 54.7812 184.594 54.3125C184.245 53.8385 184.07 53.2318 184.07 52.4922ZM191.531 56H198.977V54.7266H193.352L196.531 51.3359C197.13 50.7005 197.635 50.0833 198.047 49.4844C198.458 48.8802 198.664 48.2109 198.664 47.4766C198.664 46.638 198.346 45.9141 197.711 45.3047C197.076 44.6953 196.242 44.3906 195.211 44.3906C194.169 44.3906 193.294 44.7214 192.586 45.3828C191.883 46.0443 191.531 46.8958 191.531 47.9375V48.0156H192.984V47.9375C192.984 47.2031 193.198 46.6328 193.625 46.2266C194.057 45.8151 194.586 45.6094 195.211 45.6094C195.836 45.6094 196.326 45.8021 196.68 46.1875C197.034 46.5677 197.211 47.0234 197.211 47.5547C197.211 48.0755 197.07 48.5599 196.789 49.0078C196.513 49.4557 196.107 49.9635 195.57 50.5312L191.531 54.9297V56ZM200.789 56H202.078L202.133 54.9375H202.18C202.388 55.276 202.706 55.5651 203.133 55.8047C203.565 56.0391 204.065 56.1562 204.633 56.1562C205.669 56.1562 206.497 55.7682 207.117 54.9922C207.737 54.2109 208.047 53.2266 208.047 52.0391V51.7891C208.047 50.5964 207.737 49.612 207.117 48.8359C206.497 48.0599 205.669 47.6719 204.633 47.6719C204.065 47.6719 203.578 47.776 203.172 47.9844C202.771 48.1875 202.451 48.4583 202.211 48.7969V44.0312H200.789V56ZM202.211 53.5859V50.2422C202.372 49.8776 202.635 49.5547 203 49.2734C203.365 48.987 203.807 48.8438 204.328 48.8438C205.109 48.8438 205.68 49.1276 206.039 49.6953C206.404 50.2578 206.586 50.9557 206.586 51.7891V52.0391C206.586 52.8724 206.404 53.5729 206.039 54.1406C205.68 54.7031 205.109 54.9844 204.328 54.9844C203.807 54.9844 203.365 54.8438 203 54.5625C202.635 54.276 202.372 53.9505 202.211 53.5859ZM210.016 56H217.172V54.7891H211.492V50.7422H216.375V49.5234H211.492V45.8359H217.094V44.625H210.016V56Z" fill="#0A081C"/>
    <path d="M289.32 56H290.82L295.188 45.4297V44.625H287.633V45.8594H293.648L289.32 56ZM296.852 52.4141C296.852 53.5651 297.169 54.4896 297.805 55.1875C298.445 55.8802 299.333 56.2292 300.469 56.2344C301.594 56.2344 302.479 55.8854 303.125 55.1875C303.771 54.4896 304.094 53.5651 304.094 52.4141V48.2109C304.094 47.0599 303.771 46.1354 303.125 45.4375C302.479 44.7396 301.594 44.3906 300.469 44.3906C299.333 44.3906 298.445 44.7396 297.805 45.4375C297.169 46.1354 296.852 47.0599 296.852 48.2109V52.4141ZM298.336 52.4922V48.1328C298.336 47.3932 298.51 46.7891 298.859 46.3203C299.208 45.8464 299.745 45.6094 300.469 45.6094C301.198 45.6094 301.737 45.8464 302.086 46.3203C302.435 46.7891 302.609 47.3932 302.609 48.1328V52.4922C302.609 53.2318 302.435 53.8385 302.086 54.3125C301.737 54.7812 301.198 55.0156 300.469 55.0156C299.745 55.0156 299.208 54.7812 298.859 54.3125C298.51 53.8385 298.336 53.2318 298.336 52.4922Z" fill="#0A081C"/>
    <path d="M328 53L321 56.7078V64.4429L328 53Z" fill="#38383B"/>
    <path d="M321 56.7078L314 53C314 53.5114 318.667 61.2466 321 64.4429V56.7078Z" fill="#8C8C8C"/>
    <path d="M328 50.8492L321 54.557V47.7808L328 50.8492Z" fill="#38383C"/>
    <path d="M314 50.8492L321 54.557V47.7808L314.026 50.8015L314 50.8492Z" fill="#515158"/>
    <path d="M328 50.8493L321 38V47.7808L328 50.8493Z" fill="#4C4B4F"/>
    <path d="M321 38L314.026 50.8016L321 47.7808V38Z" fill="#8C8C8C"/>
    <rect x="0.5" y="0.5" width="362" height="101" rx="31.5" stroke="url(#paint2_linear_735_14106)"/>
    <rect y="118" width="294" height="34.4" rx="8" fill="#E8E8E8"/>
    <rect y="156.4" width="294" height="34.4" rx="8" fill="#E8E8E8"/>
    <rect y="194.8" width="294" height="34.4" rx="8" fill="#E8E8E8"/>
    <rect y="233.2" width="294" height="34.4" rx="8" fill="#E8E8E8"/>
    <rect y="271.6" width="294" height="34.4" rx="8" fill="#E8E8E8"/>
    <path fill-rule="evenodd" clip-rule="evenodd" d="M630.652 153C632.502 153 633.36 155.295 631.965 156.509L612 173.87V209C612 222.255 601.255 233 588 233H350C336.745 233 326 222.255 326 209V177C326 163.745 336.745 153 350 153H594H612H630.652Z" fill="#E8E8E8"/>
    <path d="M631.965 156.509L632.293 156.887H632.293L631.965 156.509ZM612 173.87H611.5V173.642L611.672 173.492L612 173.87ZM632.113 155.372C632.18 155.105 632.452 154.942 632.719 155.009C632.987 155.076 633.15 155.348 633.083 155.616L632.113 155.372ZM632.082 152.941C632.309 153.099 632.364 153.41 632.206 153.637C632.048 153.863 631.736 153.919 631.51 153.761L632.082 152.941ZM628.321 153.5C628.045 153.5 627.821 153.276 627.821 153C627.821 152.724 628.045 152.5 628.321 152.5V153.5ZM623.658 152.5C623.934 152.5 624.158 152.724 624.158 153C624.158 153.276 623.934 153.5 623.658 153.5V152.5ZM618.995 153.5C618.718 153.5 618.495 153.276 618.495 153C618.495 152.724 618.718 152.5 618.995 152.5V153.5ZM614.332 152.5C614.608 152.5 614.832 152.724 614.832 153C614.832 153.276 614.608 153.5 614.332 153.5V152.5ZM609.75 153.5C609.474 153.5 609.25 153.276 609.25 153C609.25 152.724 609.474 152.5 609.75 152.5V153.5ZM605.25 152.5C605.526 152.5 605.75 152.724 605.75 153C605.75 153.276 605.526 153.5 605.25 153.5V152.5ZM600.75 153.5C600.474 153.5 600.25 153.276 600.25 153C600.25 152.724 600.474 152.5 600.75 152.5V153.5ZM596.25 152.5C596.526 152.5 596.75 152.724 596.75 153C596.75 153.276 596.526 153.5 596.25 153.5V152.5ZM592.032 153.5C591.756 153.5 591.532 153.276 591.532 153C591.532 152.724 591.756 152.5 592.032 152.5V153.5ZM588.097 152.5C588.373 152.5 588.597 152.724 588.597 153C588.597 153.276 588.373 153.5 588.097 153.5V152.5ZM584.161 153.5C583.885 153.5 583.661 153.276 583.661 153C583.661 152.724 583.885 152.5 584.161 152.5V153.5ZM580.226 152.5C580.502 152.5 580.726 152.724 580.726 153C580.726 153.276 580.502 153.5 580.226 153.5V152.5ZM576.291 153.5C576.014 153.5 575.791 153.276 575.791 153C575.791 152.724 576.014 152.5 576.291 152.5V153.5ZM572.355 152.5C572.631 152.5 572.855 152.724 572.855 153C572.855 153.276 572.631 153.5 572.355 153.5V152.5ZM568.42 153.5C568.143 153.5 567.92 153.276 567.92 153C567.92 152.724 568.143 152.5 568.42 152.5V153.5ZM564.484 152.5C564.76 152.5 564.984 152.724 564.984 153C564.984 153.276 564.76 153.5 564.484 153.5V152.5ZM560.549 153.5C560.272 153.5 560.049 153.276 560.049 153C560.049 152.724 560.272 152.5 560.549 152.5V153.5ZM556.613 152.5C556.889 152.5 557.113 152.724 557.113 153C557.113 153.276 556.889 153.5 556.613 153.5V152.5ZM552.678 153.5C552.401 153.5 552.178 153.276 552.178 153C552.178 152.724 552.401 152.5 552.678 152.5V153.5ZM548.742 152.5C549.018 152.5 549.242 152.724 549.242 153C549.242 153.276 549.018 153.5 548.742 153.5V152.5ZM544.807 153.5C544.53 153.5 544.307 153.276 544.307 153C544.307 152.724 544.53 152.5 544.807 152.5V153.5ZM540.871 152.5C541.147 152.5 541.371 152.724 541.371 153C541.371 153.276 541.147 153.5 540.871 153.5V152.5ZM536.936 153.5C536.66 153.5 536.436 153.276 536.436 153C536.436 152.724 536.66 152.5 536.936 152.5V153.5ZM533 152.5C533.276 152.5 533.5 152.724 533.5 153C533.5 153.276 533.276 153.5 533 153.5V152.5ZM529.065 153.5C528.789 153.5 528.565 153.276 528.565 153C528.565 152.724 528.789 152.5 529.065 152.5V153.5ZM525.129 152.5C525.405 152.5 525.629 152.724 525.629 153C525.629 153.276 525.405 153.5 525.129 153.5V152.5ZM521.194 153.5C520.918 153.5 520.694 153.276 520.694 153C520.694 152.724 520.918 152.5 521.194 152.5V153.5ZM517.258 152.5C517.534 152.5 517.758 152.724 517.758 153C517.758 153.276 517.534 153.5 517.258 153.5V152.5ZM513.323 153.5C513.047 153.5 512.823 153.276 512.823 153C512.823 152.724 513.047 152.5 513.323 152.5V153.5ZM509.387 152.5C509.663 152.5 509.887 152.724 509.887 153C509.887 153.276 509.663 153.5 509.387 153.5V152.5ZM505.452 153.5C505.176 153.5 504.952 153.276 504.952 153C504.952 152.724 505.176 152.5 505.452 152.5V153.5ZM501.516 152.5C501.792 152.5 502.016 152.724 502.016 153C502.016 153.276 501.792 153.5 501.516 153.5V152.5ZM497.581 153.5C497.305 153.5 497.081 153.276 497.081 153C497.081 152.724 497.305 152.5 497.581 152.5V153.5ZM493.645 152.5C493.921 152.5 494.145 152.724 494.145 153C494.145 153.276 493.921 153.5 493.645 153.5V152.5ZM489.71 153.5C489.434 153.5 489.21 153.276 489.21 153C489.21 152.724 489.434 152.5 489.71 152.5V153.5ZM485.774 152.5C486.05 152.5 486.274 152.724 486.274 153C486.274 153.276 486.05 153.5 485.774 153.5V152.5ZM481.839 153.5C481.563 153.5 481.339 153.276 481.339 153C481.339 152.724 481.563 152.5 481.839 152.5V153.5ZM477.903 152.5C478.179 152.5 478.403 152.724 478.403 153C478.403 153.276 478.179 153.5 477.903 153.5V152.5ZM473.968 153.5C473.692 153.5 473.468 153.276 473.468 153C473.468 152.724 473.692 152.5 473.968 152.5V153.5ZM470.032 152.5C470.309 152.5 470.532 152.724 470.532 153C470.532 153.276 470.309 153.5 470.032 153.5V152.5ZM466.097 153.5C465.821 153.5 465.597 153.276 465.597 153C465.597 152.724 465.821 152.5 466.097 152.5V153.5ZM462.161 152.5C462.438 152.5 462.661 152.724 462.661 153C462.661 153.276 462.438 153.5 462.161 153.5V152.5ZM458.226 153.5C457.95 153.5 457.726 153.276 457.726 153C457.726 152.724 457.95 152.5 458.226 152.5V153.5ZM454.29 152.5C454.567 152.5 454.79 152.724 454.79 153C454.79 153.276 454.567 153.5 454.29 153.5V152.5ZM450.355 153.5C450.079 153.5 449.855 153.276 449.855 153C449.855 152.724 450.079 152.5 450.355 152.5V153.5ZM446.419 152.5C446.696 152.5 446.919 152.724 446.919 153C446.919 153.276 446.696 153.5 446.419 153.5V152.5ZM442.484 153.5C442.208 153.5 441.984 153.276 441.984 153C441.984 152.724 442.208 152.5 442.484 152.5V153.5ZM438.548 152.5C438.825 152.5 439.048 152.724 439.048 153C439.048 153.276 438.825 153.5 438.548 153.5V152.5ZM434.613 153.5C434.337 153.5 434.113 153.276 434.113 153C434.113 152.724 434.337 152.5 434.613 152.5V153.5ZM430.678 152.5C430.954 152.5 431.178 152.724 431.178 153C431.178 153.276 430.954 153.5 430.678 153.5V152.5ZM426.742 153.5C426.466 153.5 426.242 153.276 426.242 153C426.242 152.724 426.466 152.5 426.742 152.5V153.5ZM422.807 152.5C423.083 152.5 423.307 152.724 423.307 153C423.307 153.276 423.083 153.5 422.807 153.5V152.5ZM418.871 153.5C418.595 153.5 418.371 153.276 418.371 153C418.371 152.724 418.595 152.5 418.871 152.5V153.5ZM414.936 152.5C415.212 152.5 415.436 152.724 415.436 153C415.436 153.276 415.212 153.5 414.936 153.5V152.5ZM411 153.5C410.724 153.5 410.5 153.276 410.5 153C410.5 152.724 410.724 152.5 411 152.5V153.5ZM407.065 152.5C407.341 152.5 407.565 152.724 407.565 153C407.565 153.276 407.341 153.5 407.065 153.5V152.5ZM403.129 153.5C402.853 153.5 402.629 153.276 402.629 153C402.629 152.724 402.853 152.5 403.129 152.5V153.5ZM399.194 152.5C399.47 152.5 399.694 152.724 399.694 153C399.694 153.276 399.47 153.5 399.194 153.5V152.5ZM395.258 153.5C394.982 153.5 394.758 153.276 394.758 153C394.758 152.724 394.982 152.5 395.258 152.5V153.5ZM391.323 152.5C391.599 152.5 391.823 152.724 391.823 153C391.823 153.276 391.599 153.5 391.323 153.5V152.5ZM387.387 153.5C387.111 153.5 386.887 153.276 386.887 153C386.887 152.724 387.111 152.5 387.387 152.5V153.5ZM383.452 152.5C383.728 152.5 383.952 152.724 383.952 153C383.952 153.276 383.728 153.5 383.452 153.5V152.5ZM379.516 153.5C379.24 153.5 379.016 153.276 379.016 153C379.016 152.724 379.24 152.5 379.516 152.5V153.5ZM375.581 152.5C375.857 152.5 376.081 152.724 376.081 153C376.081 153.276 375.857 153.5 375.581 153.5V152.5ZM371.645 153.5C371.369 153.5 371.145 153.276 371.145 153C371.145 152.724 371.369 152.5 371.645 152.5V153.5ZM367.71 152.5C367.986 152.5 368.21 152.724 368.21 153C368.21 153.276 367.986 153.5 367.71 153.5V152.5ZM363.774 153.5C363.498 153.5 363.274 153.276 363.274 153C363.274 152.724 363.498 152.5 363.774 152.5V153.5ZM359.839 152.5C360.115 152.5 360.339 152.724 360.339 153C360.339 153.276 360.115 153.5 359.839 153.5V152.5ZM355.903 153.5C355.627 153.5 355.403 153.276 355.403 153C355.403 152.724 355.627 152.5 355.903 152.5V153.5ZM351.968 152.5C352.244 152.5 352.468 152.724 352.468 153C352.468 153.276 352.244 153.5 351.968 153.5V152.5ZM348.154 153.571C347.879 153.593 347.638 153.387 347.617 153.112C347.595 152.836 347.801 152.596 348.076 152.574L348.154 153.571ZM344.279 153.172C344.547 153.108 344.817 153.273 344.881 153.542C344.945 153.81 344.78 154.08 344.511 154.144L344.279 153.172ZM341.005 155.283C340.75 155.389 340.457 155.268 340.351 155.013C340.245 154.758 340.366 154.465 340.622 154.359L341.005 155.283ZM337.197 156.107C337.432 155.963 337.74 156.037 337.885 156.272C338.029 156.507 337.956 156.815 337.72 156.96L337.197 156.107ZM334.738 159.13C334.528 159.309 334.212 159.285 334.033 159.075C333.854 158.865 333.878 158.549 334.088 158.37L334.738 159.13ZM331.37 161.088C331.549 160.878 331.865 160.854 332.075 161.033C332.285 161.212 332.309 161.528 332.13 161.738L331.37 161.088ZM329.96 164.72C329.815 164.956 329.507 165.029 329.272 164.885C329.037 164.74 328.963 164.432 329.107 164.197L329.96 164.72ZM327.359 167.622C327.465 167.366 327.758 167.245 328.013 167.351C328.268 167.457 328.389 167.75 328.283 168.005L327.359 167.622ZM327.144 171.511C327.08 171.78 326.81 171.945 326.542 171.881C326.273 171.817 326.108 171.547 326.172 171.279L327.144 171.511ZM325.574 175.076C325.596 174.801 325.836 174.595 326.112 174.617C326.387 174.638 326.593 174.879 326.571 175.154L325.574 175.076ZM326.5 179C326.5 179.276 326.276 179.5 326 179.5C325.724 179.5 325.5 179.276 325.5 179H326.5ZM325.5 183C325.5 182.724 325.724 182.5 326 182.5C326.276 182.5 326.5 182.724 326.5 183H325.5ZM326.5 187C326.5 187.276 326.276 187.5 326 187.5C325.724 187.5 325.5 187.276 325.5 187H326.5ZM325.5 191C325.5 190.724 325.724 190.5 326 190.5C326.276 190.5 326.5 190.724 326.5 191H325.5ZM326.5 195C326.5 195.276 326.276 195.5 326 195.5C325.724 195.5 325.5 195.276 325.5 195H326.5ZM325.5 199C325.5 198.724 325.724 198.5 326 198.5C326.276 198.5 326.5 198.724 326.5 199H325.5ZM326.5 203C326.5 203.276 326.276 203.5 326 203.5C325.724 203.5 325.5 203.276 325.5 203H326.5ZM325.5 207C325.5 206.724 325.724 206.5 326 206.5C326.276 206.5 326.5 206.724 326.5 207H325.5ZM326.571 210.846C326.593 211.121 326.387 211.362 326.112 211.383C325.836 211.405 325.596 211.199 325.574 210.924L326.571 210.846ZM326.172 214.721C326.108 214.453 326.273 214.183 326.542 214.119C326.81 214.055 327.08 214.22 327.144 214.489L326.172 214.721ZM328.283 217.995C328.389 218.25 328.268 218.543 328.013 218.649C327.758 218.755 327.465 218.634 327.359 218.378L328.283 217.995ZM329.107 221.803C328.963 221.568 329.037 221.26 329.272 221.115C329.507 220.971 329.815 221.044 329.96 221.28L329.107 221.803ZM332.13 224.262C332.309 224.472 332.285 224.788 332.075 224.967C331.865 225.146 331.549 225.122 331.37 224.912L332.13 224.262ZM334.088 227.63C333.878 227.451 333.854 227.135 334.033 226.925C334.212 226.715 334.528 226.691 334.738 226.87L334.088 227.63ZM337.72 229.04C337.956 229.185 338.029 229.493 337.885 229.728C337.74 229.963 337.432 230.037 337.197 229.893L337.72 229.04ZM340.622 231.641C340.366 231.535 340.245 231.242 340.351 230.987C340.457 230.732 340.75 230.611 341.005 230.717L340.622 231.641ZM344.511 231.856C344.78 231.92 344.945 232.19 344.881 232.458C344.817 232.727 344.547 232.892 344.279 232.828L344.511 231.856ZM348.076 233.426C347.801 233.404 347.595 233.164 347.617 232.888C347.638 232.613 347.879 232.407 348.154 232.429L348.076 233.426ZM351.983 232.5C352.259 232.5 352.483 232.724 352.483 233C352.483 233.276 352.259 233.5 351.983 233.5V232.5ZM355.95 233.5C355.674 233.5 355.45 233.276 355.45 233C355.45 232.724 355.674 232.5 355.95 232.5V233.5ZM359.917 232.5C360.193 232.5 360.417 232.724 360.417 233C360.417 233.276 360.193 233.5 359.917 233.5V232.5ZM363.883 233.5C363.607 233.5 363.383 233.276 363.383 233C363.383 232.724 363.607 232.5 363.883 232.5V233.5ZM367.85 232.5C368.126 232.5 368.35 232.724 368.35 233C368.35 233.276 368.126 233.5 367.85 233.5V232.5ZM371.817 233.5C371.541 233.5 371.317 233.276 371.317 233C371.317 232.724 371.541 232.5 371.817 232.5V233.5ZM375.783 232.5C376.059 232.5 376.283 232.724 376.283 233C376.283 233.276 376.059 233.5 375.783 233.5V232.5ZM379.75 233.5C379.474 233.5 379.25 233.276 379.25 233C379.25 232.724 379.474 232.5 379.75 232.5V233.5ZM383.717 232.5C383.993 232.5 384.217 232.724 384.217 233C384.217 233.276 383.993 233.5 383.717 233.5V232.5ZM387.683 233.5C387.407 233.5 387.183 233.276 387.183 233C387.183 232.724 387.407 232.5 387.683 232.5V233.5ZM391.65 232.5C391.926 232.5 392.15 232.724 392.15 233C392.15 233.276 391.926 233.5 391.65 233.5V232.5ZM395.617 233.5C395.341 233.5 395.117 233.276 395.117 233C395.117 232.724 395.341 232.5 395.617 232.5V233.5ZM399.583 232.5C399.859 232.5 400.083 232.724 400.083 233C400.083 233.276 399.859 233.5 399.583 233.5V232.5ZM403.55 233.5C403.274 233.5 403.05 233.276 403.05 233C403.05 232.724 403.274 232.5 403.55 232.5V233.5ZM407.517 232.5C407.793 232.5 408.017 232.724 408.017 233C408.017 233.276 407.793 233.5 407.517 233.5V232.5ZM411.483 233.5C411.207 233.5 410.983 233.276 410.983 233C410.983 232.724 411.207 232.5 411.483 232.5V233.5ZM415.45 232.5C415.726 232.5 415.95 232.724 415.95 233C415.95 233.276 415.726 233.5 415.45 233.5V232.5ZM419.417 233.5C419.141 233.5 418.917 233.276 418.917 233C418.917 232.724 419.141 232.5 419.417 232.5V233.5ZM423.383 232.5C423.659 232.5 423.883 232.724 423.883 233C423.883 233.276 423.659 233.5 423.383 233.5V232.5ZM427.35 233.5C427.074 233.5 426.85 233.276 426.85 233C426.85 232.724 427.074 232.5 427.35 232.5V233.5ZM431.317 232.5C431.593 232.5 431.817 232.724 431.817 233C431.817 233.276 431.593 233.5 431.317 233.5V232.5ZM435.283 233.5C435.007 233.5 434.783 233.276 434.783 233C434.783 232.724 435.007 232.5 435.283 232.5V233.5ZM439.25 232.5C439.526 232.5 439.75 232.724 439.75 233C439.75 233.276 439.526 233.5 439.25 233.5V232.5ZM443.217 233.5C442.941 233.5 442.717 233.276 442.717 233C442.717 232.724 442.941 232.5 443.217 232.5V233.5ZM447.183 232.5C447.459 232.5 447.683 232.724 447.683 233C447.683 233.276 447.459 233.5 447.183 233.5V232.5ZM451.15 233.5C450.874 233.5 450.65 233.276 450.65 233C450.65 232.724 450.874 232.5 451.15 232.5V233.5ZM455.117 232.5C455.393 232.5 455.617 232.724 455.617 233C455.617 233.276 455.393 233.5 455.117 233.5V232.5ZM459.083 233.5C458.807 233.5 458.583 233.276 458.583 233C458.583 232.724 458.807 232.5 459.083 232.5V233.5ZM463.05 232.5C463.326 232.5 463.55 232.724 463.55 233C463.55 233.276 463.326 233.5 463.05 233.5V232.5ZM467.017 233.5C466.741 233.5 466.517 233.276 466.517 233C466.517 232.724 466.741 232.5 467.017 232.5V233.5ZM470.983 232.5C471.259 232.5 471.483 232.724 471.483 233C471.483 233.276 471.259 233.5 470.983 233.5V232.5ZM474.95 233.5C474.674 233.5 474.45 233.276 474.45 233C474.45 232.724 474.674 232.5 474.95 232.5V233.5ZM478.917 232.5C479.193 232.5 479.417 232.724 479.417 233C479.417 233.276 479.193 233.5 478.917 233.5V232.5ZM482.883 233.5C482.607 233.5 482.383 233.276 482.383 233C482.383 232.724 482.607 232.5 482.883 232.5V233.5ZM486.85 232.5C487.126 232.5 487.35 232.724 487.35 233C487.35 233.276 487.126 233.5 486.85 233.5V232.5ZM490.817 233.5C490.541 233.5 490.317 233.276 490.317 233C490.317 232.724 490.541 232.5 490.817 232.5V233.5ZM494.783 232.5C495.059 232.5 495.283 232.724 495.283 233C495.283 233.276 495.059 233.5 494.783 233.5V232.5ZM498.75 233.5C498.474 233.5 498.25 233.276 498.25 233C498.25 232.724 498.474 232.5 498.75 232.5V233.5ZM502.717 232.5C502.993 232.5 503.217 232.724 503.217 233C503.217 233.276 502.993 233.5 502.717 233.5V232.5ZM506.683 233.5C506.407 233.5 506.183 233.276 506.183 233C506.183 232.724 506.407 232.5 506.683 232.5V233.5ZM510.65 232.5C510.926 232.5 511.15 232.724 511.15 233C511.15 233.276 510.926 233.5 510.65 233.5V232.5ZM514.617 233.5C514.34 233.5 514.117 233.276 514.117 233C514.117 232.724 514.34 232.5 514.617 232.5V233.5ZM518.583 232.5C518.859 232.5 519.083 232.724 519.083 233C519.083 233.276 518.859 233.5 518.583 233.5V232.5ZM522.55 233.5C522.274 233.5 522.05 233.276 522.05 233C522.05 232.724 522.274 232.5 522.55 232.5V233.5ZM526.517 232.5C526.793 232.5 527.017 232.724 527.017 233C527.017 233.276 526.793 233.5 526.517 233.5V232.5ZM530.483 233.5C530.207 233.5 529.983 233.276 529.983 233C529.983 232.724 530.207 232.5 530.483 232.5V233.5ZM534.45 232.5C534.726 232.5 534.95 232.724 534.95 233C534.95 233.276 534.726 233.5 534.45 233.5V232.5ZM538.417 233.5C538.14 233.5 537.917 233.276 537.917 233C537.917 232.724 538.14 232.5 538.417 232.5V233.5ZM542.383 232.5C542.659 232.5 542.883 232.724 542.883 233C542.883 233.276 542.659 233.5 542.383 233.5V232.5ZM546.35 233.5C546.074 233.5 545.85 233.276 545.85 233C545.85 232.724 546.074 232.5 546.35 232.5V233.5ZM550.317 232.5C550.593 232.5 550.817 232.724 550.817 233C550.817 233.276 550.593 233.5 550.317 233.5V232.5ZM554.283 233.5C554.007 233.5 553.783 233.276 553.783 233C553.783 232.724 554.007 232.5 554.283 232.5V233.5ZM558.25 232.5C558.526 232.5 558.75 232.724 558.75 233C558.75 233.276 558.526 233.5 558.25 233.5V232.5ZM562.217 233.5C561.94 233.5 561.717 233.276 561.717 233C561.717 232.724 561.94 232.5 562.217 232.5V233.5ZM566.183 232.5C566.459 232.5 566.683 232.724 566.683 233C566.683 233.276 566.459 233.5 566.183 233.5V232.5ZM570.15 233.5C569.874 233.5 569.65 233.276 569.65 233C569.65 232.724 569.874 232.5 570.15 232.5V233.5ZM574.117 232.5C574.393 232.5 574.617 232.724 574.617 233C574.617 233.276 574.393 233.5 574.117 233.5V232.5ZM578.083 233.5C577.807 233.5 577.583 233.276 577.583 233C577.583 232.724 577.807 232.5 578.083 232.5V233.5ZM582.05 232.5C582.326 232.5 582.55 232.724 582.55 233C582.55 233.276 582.326 233.5 582.05 233.5V232.5ZM586.016 233.5C585.74 233.5 585.516 233.276 585.516 233C585.516 232.724 585.74 232.5 586.016 232.5V233.5ZM589.846 232.429C590.121 232.407 590.362 232.613 590.383 232.888C590.405 233.164 590.199 233.404 589.924 233.426L589.846 232.429ZM593.721 232.828C593.453 232.892 593.183 232.727 593.119 232.458C593.055 232.19 593.22 231.92 593.489 231.856L593.721 232.828ZM596.995 230.717C597.25 230.611 597.543 230.732 597.649 230.987C597.755 231.242 597.634 231.535 597.378 231.641L596.995 230.717ZM600.803 229.893C600.568 230.037 600.26 229.963 600.115 229.728C599.971 229.493 600.044 229.185 600.28 229.04L600.803 229.893ZM603.262 226.87C603.472 226.691 603.788 226.715 603.967 226.925C604.146 227.135 604.122 227.451 603.912 227.63L603.262 226.87ZM606.63 224.912C606.451 225.122 606.135 225.146 605.925 224.967C605.715 224.788 605.691 224.472 605.87 224.262L606.63 224.912ZM608.04 221.28C608.185 221.044 608.493 220.971 608.728 221.115C608.963 221.26 609.037 221.568 608.893 221.803L608.04 221.28ZM610.641 218.378C610.535 218.634 610.242 218.755 609.987 218.649C609.732 218.543 609.611 218.25 609.717 217.995L610.641 218.378ZM610.856 214.489C610.92 214.22 611.19 214.055 611.458 214.119C611.727 214.183 611.892 214.453 611.828 214.721L610.856 214.489ZM612.426 210.924C612.404 211.199 612.164 211.405 611.888 211.383C611.613 211.362 611.407 211.121 611.429 210.846L612.426 210.924ZM611.5 206.804C611.5 206.528 611.724 206.304 612 206.304C612.276 206.304 612.5 206.528 612.5 206.804H611.5ZM612.5 202.413C612.5 202.689 612.276 202.913 612 202.913C611.724 202.913 611.5 202.689 611.5 202.413H612.5ZM611.5 198.022C611.5 197.746 611.724 197.522 612 197.522C612.276 197.522 612.5 197.746 612.5 198.022H611.5ZM612.5 193.631C612.5 193.907 612.276 194.131 612 194.131C611.724 194.131 611.5 193.907 611.5 193.631H612.5ZM611.5 189.239C611.5 188.963 611.724 188.739 612 188.739C612.276 188.739 612.5 188.963 612.5 189.239H611.5ZM612.5 184.848C612.5 185.124 612.276 185.348 612 185.348C611.724 185.348 611.5 185.124 611.5 184.848H612.5ZM611.5 180.457C611.5 180.181 611.724 179.957 612 179.957C612.276 179.957 612.5 180.181 612.5 180.457H611.5ZM612.5 176.065C612.5 176.342 612.276 176.565 612 176.565C611.724 176.565 611.5 176.342 611.5 176.065H612.5ZM613.336 172.046C613.544 171.865 613.86 171.887 614.041 172.095C614.222 172.303 614.2 172.619 613.992 172.8L613.336 172.046ZM617.319 169.907C617.111 170.088 616.795 170.066 616.614 169.858C616.433 169.649 616.455 169.333 616.663 169.152L617.319 169.907ZM619.99 166.259C620.199 166.078 620.515 166.1 620.696 166.308C620.877 166.516 620.855 166.832 620.647 167.013L619.99 166.259ZM623.974 164.12C623.766 164.301 623.45 164.279 623.269 164.071C623.088 163.862 623.11 163.547 623.318 163.365L623.974 164.12ZM626.645 160.472C626.854 160.291 627.17 160.313 627.351 160.521C627.532 160.73 627.51 161.045 627.302 161.227L626.645 160.472ZM630.629 158.333C630.421 158.514 630.105 158.492 629.924 158.284C629.742 158.076 629.764 157.76 629.973 157.579L630.629 158.333ZM631.637 156.132C631.894 155.908 632.045 155.643 632.113 155.372L633.083 155.616C632.965 156.084 632.706 156.527 632.293 156.887L631.637 156.132ZM631.51 153.761C631.281 153.601 630.994 153.5 630.652 153.5V152.5C631.2 152.5 631.686 152.664 632.082 152.941L631.51 153.761ZM630.652 153.5H628.321V152.5H630.652V153.5ZM623.658 153.5H618.995V152.5H623.658V153.5ZM614.332 153.5H612V152.5H614.332V153.5ZM612 153.5H609.75V152.5H612V153.5ZM605.25 153.5H600.75V152.5H605.25V153.5ZM596.25 153.5H594V152.5H596.25V153.5ZM594 153.5H592.032V152.5H594V153.5ZM588.097 153.5H584.161V152.5H588.097V153.5ZM580.226 153.5H576.291V152.5H580.226V153.5ZM572.355 153.5H568.42V152.5H572.355V153.5ZM564.484 153.5H560.549V152.5H564.484V153.5ZM556.613 153.5H552.678V152.5H556.613V153.5ZM548.742 153.5H544.807V152.5H548.742V153.5ZM540.871 153.5H536.936V152.5H540.871V153.5ZM533 153.5H529.065V152.5H533V153.5ZM525.129 153.5H521.194V152.5H525.129V153.5ZM517.258 153.5H513.323V152.5H517.258V153.5ZM509.387 153.5H505.452V152.5H509.387V153.5ZM501.516 153.5H497.581V152.5H501.516V153.5ZM493.645 153.5H489.71V152.5H493.645V153.5ZM485.774 153.5H481.839V152.5H485.774V153.5ZM477.903 153.5H473.968V152.5H477.903V153.5ZM470.032 153.5H466.097V152.5H470.032V153.5ZM462.161 153.5H458.226V152.5H462.161V153.5ZM454.29 153.5H450.355V152.5H454.29V153.5ZM446.419 153.5H442.484V152.5H446.419V153.5ZM438.548 153.5H434.613V152.5H438.548V153.5ZM430.678 153.5H426.742V152.5H430.678V153.5ZM422.807 153.5H418.871V152.5H422.807V153.5ZM414.936 153.5H411V152.5H414.936V153.5ZM407.065 153.5H403.129V152.5H407.065V153.5ZM399.194 153.5H395.258V152.5H399.194V153.5ZM391.323 153.5H387.387V152.5H391.323V153.5ZM383.452 153.5H379.516V152.5H383.452V153.5ZM375.581 153.5H371.645V152.5H375.581V153.5ZM367.71 153.5H363.774V152.5H367.71V153.5ZM359.839 153.5H355.903V152.5H359.839V153.5ZM351.968 153.5H350V152.5H351.968V153.5ZM350 153.5C349.379 153.5 348.763 153.524 348.154 153.571L348.076 152.574C348.711 152.525 349.353 152.5 350 152.5V153.5ZM344.511 154.144C343.303 154.433 342.132 154.816 341.005 155.283L340.622 154.359C341.797 153.872 343.019 153.473 344.279 153.172L344.511 154.144ZM337.72 156.96C336.669 157.605 335.672 158.332 334.738 159.13L334.088 158.37C335.061 157.538 336.101 156.781 337.197 156.107L337.72 156.96ZM332.13 161.738C331.332 162.672 330.605 163.669 329.96 164.72L329.107 164.197C329.781 163.101 330.538 162.061 331.37 161.088L332.13 161.738ZM328.283 168.005C327.816 169.132 327.433 170.303 327.144 171.511L326.172 171.279C326.473 170.019 326.872 168.797 327.359 167.622L328.283 168.005ZM326.571 175.154C326.524 175.763 326.5 176.379 326.5 177H325.5C325.5 176.353 325.525 175.711 325.574 175.076L326.571 175.154ZM326.5 177V179H325.5V177H326.5ZM326.5 183V187H325.5V183H326.5ZM326.5 191V195H325.5V191H326.5ZM326.5 199V203H325.5V199H326.5ZM326.5 207V209H325.5V207H326.5ZM326.5 209C326.5 209.621 326.524 210.237 326.571 210.846L325.574 210.924C325.525 210.289 325.5 209.647 325.5 209H326.5ZM327.144 214.489C327.433 215.697 327.816 216.868 328.283 217.995L327.359 218.378C326.872 217.203 326.473 215.981 326.172 214.721L327.144 214.489ZM329.96 221.28C330.605 222.331 331.332 223.328 332.13 224.262L331.37 224.912C330.538 223.939 329.781 222.899 329.107 221.803L329.96 221.28ZM334.738 226.87C335.672 227.668 336.669 228.395 337.72 229.04L337.197 229.893C336.101 229.219 335.061 228.462 334.088 227.63L334.738 226.87ZM341.005 230.717C342.132 231.184 343.303 231.567 344.511 231.856L344.279 232.828C343.019 232.527 341.797 232.128 340.622 231.641L341.005 230.717ZM348.154 232.429C348.763 232.476 349.379 232.5 350 232.5V233.5C349.353 233.5 348.711 233.475 348.076 233.426L348.154 232.429ZM350 232.5H351.983V233.5H350V232.5ZM355.95 232.5H359.917V233.5H355.95V232.5ZM363.883 232.5H367.85V233.5H363.883V232.5ZM371.817 232.5H375.783V233.5H371.817V232.5ZM379.75 232.5H383.717V233.5H379.75V232.5ZM387.683 232.5H391.65V233.5H387.683V232.5ZM395.617 232.5H399.583V233.5H395.617V232.5ZM403.55 232.5H407.517V233.5H403.55V232.5ZM411.483 232.5H415.45V233.5H411.483V232.5ZM419.417 232.5H423.383V233.5H419.417V232.5ZM427.35 232.5H431.317V233.5H427.35V232.5ZM435.283 232.5H439.25V233.5H435.283V232.5ZM443.217 232.5H447.183V233.5H443.217V232.5ZM451.15 232.5H455.117V233.5H451.15V232.5ZM459.083 232.5H463.05V233.5H459.083V232.5ZM467.017 232.5H470.983V233.5H467.017V232.5ZM474.95 232.5H478.917V233.5H474.95V232.5ZM482.883 232.5H486.85V233.5H482.883V232.5ZM490.817 232.5H494.783V233.5H490.817V232.5ZM498.75 232.5H502.717V233.5H498.75V232.5ZM506.683 232.5H510.65V233.5H506.683V232.5ZM514.617 232.5H518.583V233.5H514.617V232.5ZM522.55 232.5H526.517V233.5H522.55V232.5ZM530.483 232.5H534.45V233.5H530.483V232.5ZM538.417 232.5H542.383V233.5H538.417V232.5ZM546.35 232.5H550.317V233.5H546.35V232.5ZM554.283 232.5H558.25V233.5H554.283V232.5ZM562.217 232.5H566.183V233.5H562.217V232.5ZM570.15 232.5H574.117V233.5H570.15V232.5ZM578.083 232.5H582.05V233.5H578.083V232.5ZM586.016 232.5H588V233.5H586.016V232.5ZM588 232.5C588.621 232.5 589.237 232.476 589.846 232.429L589.924 233.426C589.289 233.475 588.647 233.5 588 233.5V232.5ZM593.489 231.856C594.697 231.567 595.868 231.184 596.995 230.717L597.378 231.641C596.203 232.128 594.981 232.527 593.721 232.828L593.489 231.856ZM600.28 229.04C601.331 228.395 602.328 227.668 603.262 226.87L603.912 227.63C602.939 228.462 601.899 229.219 600.803 229.893L600.28 229.04ZM605.87 224.262C606.668 223.328 607.395 222.331 608.04 221.28L608.893 221.803C608.219 222.899 607.462 223.939 606.63 224.912L605.87 224.262ZM609.717 217.995C610.184 216.868 610.567 215.697 610.856 214.489L611.828 214.721C611.527 215.981 611.128 217.203 610.641 218.378L609.717 217.995ZM611.429 210.846C611.476 210.237 611.5 209.621 611.5 209H612.5C612.5 209.647 612.475 210.289 612.426 210.924L611.429 210.846ZM611.5 209V206.804H612.5V209H611.5ZM611.5 202.413V198.022H612.5V202.413H611.5ZM611.5 193.631V189.239H612.5V193.631H611.5ZM611.5 184.848V180.457H612.5V184.848H611.5ZM611.5 176.065V173.87H612.5V176.065H611.5ZM611.672 173.492L613.336 172.046L613.992 172.8L612.328 174.247L611.672 173.492ZM616.663 169.152L619.99 166.259L620.647 167.013L617.319 169.907L616.663 169.152ZM623.318 163.365L626.645 160.472L627.302 161.227L623.974 164.12L623.318 163.365ZM629.973 157.579L631.637 156.132L632.293 156.887L630.629 158.333L629.973 157.579Z" fill="#C4C4CC"/>
    <path d="M393.921 187H395.233V183.281L398.672 177.047H397.25L394.98 181.258C394.908 181.395 394.839 181.52 394.775 181.634C394.716 181.748 394.661 181.866 394.611 181.989H394.57C394.52 181.866 394.463 181.748 394.399 181.634C394.34 181.52 394.274 181.395 394.201 181.258L391.959 177.047H390.482L393.921 183.281V187ZM398.357 183.514C398.357 184.598 398.665 185.485 399.28 186.173C399.896 186.861 400.718 187.205 401.748 187.205C402.778 187.205 403.601 186.861 404.216 186.173C404.831 185.485 405.139 184.598 405.139 183.514V183.295C405.139 182.21 404.831 181.324 404.216 180.636C403.601 179.948 402.778 179.604 401.748 179.604C400.718 179.604 399.896 179.948 399.28 180.636C398.665 181.324 398.357 182.21 398.357 183.295V183.514ZM399.656 183.295C399.656 182.552 399.832 181.925 400.183 181.415C400.534 180.9 401.055 180.643 401.748 180.643C402.441 180.643 402.963 180.9 403.313 181.415C403.664 181.925 403.84 182.552 403.84 183.295V183.514C403.84 184.257 403.664 184.885 403.313 185.4C402.963 185.911 402.441 186.166 401.748 186.166C401.055 186.166 400.534 185.911 400.183 185.4C399.832 184.885 399.656 184.257 399.656 183.514V183.295ZM406.663 184.45C406.663 185.416 406.877 186.107 407.306 186.521C407.739 186.932 408.317 187.137 409.042 187.137C409.498 187.137 409.912 187.043 410.286 186.856C410.664 186.665 410.983 186.405 411.243 186.077H411.284L411.339 187H412.487V179.809H411.216V184.895C411.043 185.241 410.801 185.523 410.491 185.742C410.181 185.961 409.824 186.07 409.418 186.07C408.944 186.07 408.577 185.947 408.317 185.701C408.062 185.451 407.935 185.038 407.935 184.464V179.809H406.663V184.45ZM417.498 183.514C417.498 184.598 417.792 185.485 418.38 186.173C418.972 186.861 419.786 187.205 420.82 187.205C421.777 187.205 422.504 186.948 423.001 186.433C423.498 185.913 423.746 185.334 423.746 184.696V184.662H422.516V184.696C422.516 185.084 422.381 185.425 422.112 185.722C421.843 186.018 421.413 186.166 420.82 186.166C420.128 186.166 419.617 185.911 419.289 185.4C418.961 184.885 418.797 184.257 418.797 183.514V183.295C418.797 182.552 418.961 181.925 419.289 181.415C419.617 180.9 420.128 180.643 420.82 180.643C421.413 180.643 421.843 180.791 422.112 181.087C422.381 181.383 422.516 181.725 422.516 182.112V182.146H423.746V182.112C423.746 181.474 423.498 180.898 423.001 180.383C422.504 179.863 421.777 179.604 420.82 179.604C419.786 179.604 418.972 179.948 418.38 180.636C417.792 181.324 417.498 182.21 417.498 183.295V183.514ZM424.833 184.881C424.833 185.61 425.072 186.168 425.551 186.556C426.029 186.943 426.61 187.137 427.294 187.137C427.886 187.137 428.369 187.023 428.743 186.795C429.121 186.567 429.395 186.305 429.563 186.009C429.577 186.191 429.609 186.373 429.659 186.556C429.714 186.738 429.773 186.886 429.837 187H431.067V186.891C430.985 186.69 430.922 186.46 430.876 186.2C430.83 185.936 430.808 185.656 430.808 185.359V182.078C430.808 181.258 430.568 180.64 430.09 180.226C429.616 179.811 428.946 179.604 428.08 179.604C427.214 179.604 426.526 179.818 426.016 180.246C425.51 180.67 425.257 181.167 425.257 181.736V181.771H426.521V181.736C426.521 181.44 426.638 181.18 426.87 180.957C427.107 180.729 427.499 180.615 428.046 180.615C428.593 180.615 428.978 180.752 429.201 181.025C429.424 181.294 429.536 181.645 429.536 182.078V182.57H427.909C427.016 182.57 426.28 182.773 425.701 183.179C425.122 183.584 424.833 184.152 424.833 184.881ZM426.104 184.812C426.104 184.402 426.269 184.076 426.597 183.835C426.925 183.593 427.408 183.473 428.046 183.473H429.536V184.505C429.536 184.892 429.333 185.259 428.928 185.605C428.522 185.952 428.069 186.125 427.567 186.125C427.066 186.125 426.697 186.009 426.46 185.776C426.223 185.544 426.104 185.223 426.104 184.812ZM432.79 187H434.062V181.914C434.235 181.568 434.476 181.285 434.786 181.066C435.096 180.848 435.454 180.738 435.859 180.738C436.333 180.738 436.698 180.864 436.953 181.114C437.213 181.36 437.343 181.771 437.343 182.345V187H438.614V182.358C438.614 181.392 438.398 180.704 437.965 180.294C437.536 179.879 436.96 179.672 436.235 179.672C435.78 179.672 435.363 179.768 434.984 179.959C434.611 180.146 434.294 180.403 434.034 180.731H433.993L433.938 179.809H432.79V187ZM443.987 187H445.136L445.19 186.063H445.231C445.414 186.36 445.692 186.613 446.065 186.822C446.444 187.032 446.883 187.137 447.385 187.137C448.296 187.137 449.025 186.795 449.572 186.111C450.119 185.428 450.393 184.562 450.393 183.514V183.295C450.393 182.247 450.119 181.381 449.572 180.697C449.025 180.014 448.296 179.672 447.385 179.672C446.883 179.672 446.455 179.763 446.1 179.945C445.749 180.123 445.468 180.36 445.259 180.656V176.5H443.987V187ZM445.259 184.867V181.941C445.4 181.622 445.63 181.338 445.949 181.087C446.268 180.836 446.656 180.711 447.111 180.711C447.795 180.711 448.296 180.959 448.615 181.456C448.934 181.953 449.094 182.566 449.094 183.295V183.514C449.094 184.243 448.934 184.856 448.615 185.353C448.296 185.849 447.795 186.098 447.111 186.098C446.656 186.098 446.268 185.972 445.949 185.722C445.63 185.471 445.4 185.186 445.259 184.867ZM451.555 183.514C451.555 184.598 451.851 185.485 452.443 186.173C453.04 186.861 453.897 187.205 455.014 187.205C455.697 187.205 456.276 187.057 456.75 186.761C457.229 186.465 457.582 186.146 457.81 185.804L456.989 185.154C456.784 185.428 456.518 185.665 456.189 185.865C455.861 186.066 455.469 186.166 455.014 186.166C454.275 186.166 453.731 185.911 453.38 185.4C453.029 184.885 452.854 184.257 452.854 183.514V183.295C452.854 182.552 453.02 181.925 453.353 181.415C453.685 180.9 454.189 180.643 454.863 180.643C455.419 180.643 455.845 180.825 456.142 181.189C456.438 181.554 456.586 181.996 456.586 182.516V182.68H452.334V183.691H457.864V183.172C457.864 182.078 457.6 181.21 457.071 180.567C456.543 179.925 455.788 179.604 454.809 179.604C453.829 179.604 453.04 179.948 452.443 180.636C451.851 181.324 451.555 182.21 451.555 183.295V183.514ZM462.902 187H464.174V179.809H462.902V187ZM462.745 177.635C462.745 177.849 462.813 178.029 462.95 178.175C463.087 178.321 463.283 178.394 463.538 178.394C463.793 178.394 463.989 178.321 464.126 178.175C464.263 178.029 464.331 177.849 464.331 177.635C464.331 177.421 464.263 177.241 464.126 177.095C463.989 176.949 463.793 176.876 463.538 176.876C463.283 176.876 463.087 176.949 462.95 177.095C462.813 177.241 462.745 177.421 462.745 177.635ZM466.259 187H467.53V181.914C467.703 181.568 467.945 181.285 468.255 181.066C468.565 180.848 468.923 180.738 469.328 180.738C469.802 180.738 470.167 180.864 470.422 181.114C470.682 181.36 470.812 181.771 470.812 182.345V187H472.083V182.358C472.083 181.392 471.867 180.704 471.434 180.294C471.005 179.879 470.429 179.672 469.704 179.672C469.248 179.672 468.831 179.768 468.453 179.959C468.079 180.146 467.763 180.403 467.503 180.731H467.462L467.407 179.809H466.259V187ZM477.511 187H478.782V176.5H477.511V187ZM480.922 187H482.193V179.809H480.922V187ZM480.765 177.635C480.765 177.849 480.833 178.029 480.97 178.175C481.106 178.321 481.302 178.394 481.558 178.394C481.813 178.394 482.009 178.321 482.146 178.175C482.282 178.029 482.351 177.849 482.351 177.635C482.351 177.421 482.282 177.241 482.146 177.095C482.009 176.949 481.813 176.876 481.558 176.876C481.302 176.876 481.106 176.949 480.97 177.095C480.833 177.241 480.765 177.421 480.765 177.635ZM484.278 187H485.55V181.914C485.723 181.568 485.965 181.285 486.274 181.066C486.584 180.848 486.942 180.738 487.348 180.738C487.822 180.738 488.186 180.864 488.441 181.114C488.701 181.36 488.831 181.771 488.831 182.345V187H490.103V182.358C490.103 181.392 489.886 180.704 489.453 180.294C489.025 179.879 488.448 179.672 487.724 179.672C487.268 179.672 486.851 179.768 486.473 179.959C486.099 180.146 485.782 180.403 485.522 180.731H485.481L485.427 179.809H484.278V187ZM491.627 183.514C491.627 184.598 491.923 185.485 492.516 186.173C493.113 186.861 493.969 187.205 495.086 187.205C495.77 187.205 496.348 187.057 496.822 186.761C497.301 186.465 497.654 186.146 497.882 185.804L497.062 185.154C496.856 185.428 496.59 185.665 496.262 185.865C495.934 186.066 495.542 186.166 495.086 186.166C494.348 186.166 493.803 185.911 493.452 185.4C493.101 184.885 492.926 184.257 492.926 183.514V183.295C492.926 182.552 493.092 181.925 493.425 181.415C493.757 180.9 494.261 180.643 494.936 180.643C495.492 180.643 495.918 180.825 496.214 181.189C496.51 181.554 496.658 181.996 496.658 182.516V182.68H492.406V183.691H497.937V183.172C497.937 182.078 497.672 181.21 497.144 180.567C496.615 179.925 495.861 179.604 494.881 179.604C493.901 179.604 493.113 179.948 492.516 180.636C491.923 181.324 491.627 182.21 491.627 183.295V183.514ZM503.241 187H504.513V180.369V180.219V178.797C504.513 178.341 504.624 177.999 504.848 177.771C505.071 177.544 505.388 177.43 505.798 177.43C505.916 177.43 506.033 177.437 506.146 177.45C506.26 177.464 506.368 177.48 506.468 177.498L506.536 176.473C506.399 176.436 506.256 176.409 506.105 176.391C505.955 176.372 505.807 176.363 505.661 176.363C504.914 176.363 504.324 176.571 503.891 176.985C503.458 177.4 503.241 178.004 503.241 178.797V187ZM502.072 180.779H506.071V179.809H504.034H503.72H502.072V180.779ZM506.584 183.514C506.584 184.598 506.892 185.485 507.507 186.173C508.122 186.861 508.945 187.205 509.975 187.205C511.005 187.205 511.827 186.861 512.442 186.173C513.058 185.485 513.365 184.598 513.365 183.514V183.295C513.365 182.21 513.058 181.324 512.442 180.636C511.827 179.948 511.005 179.604 509.975 179.604C508.945 179.604 508.122 179.948 507.507 180.636C506.892 181.324 506.584 182.21 506.584 183.295V183.514ZM507.883 183.295C507.883 182.552 508.058 181.925 508.409 181.415C508.76 180.9 509.282 180.643 509.975 180.643C510.667 180.643 511.189 180.9 511.54 181.415C511.891 181.925 512.066 182.552 512.066 183.295V183.514C512.066 184.257 511.891 184.885 511.54 185.4C511.189 185.911 510.667 186.166 509.975 186.166C509.282 186.166 508.76 185.911 508.409 185.4C508.058 184.885 507.883 184.257 507.883 183.514V183.295ZM514.958 187H516.229V181.941C516.366 181.622 516.578 181.356 516.865 181.142C517.152 180.927 517.501 180.82 517.911 180.82C518.03 180.82 518.139 180.825 518.239 180.834C518.34 180.843 518.435 180.857 518.526 180.875V179.699C518.481 179.681 518.403 179.66 518.294 179.638C518.185 179.615 518.08 179.604 517.979 179.604C517.569 179.604 517.216 179.717 516.92 179.945C516.624 180.169 516.384 180.431 516.202 180.731H516.161L516.106 179.809H514.958V187ZM519.176 183.514C519.176 184.598 519.472 185.485 520.064 186.173C520.661 186.861 521.518 187.205 522.635 187.205C523.318 187.205 523.897 187.057 524.371 186.761C524.85 186.465 525.203 186.146 525.431 185.804L524.61 185.154C524.405 185.428 524.139 185.665 523.811 185.865C523.482 186.066 523.09 186.166 522.635 186.166C521.896 186.166 521.352 185.911 521.001 185.4C520.65 184.885 520.475 184.257 520.475 183.514V183.295C520.475 182.552 520.641 181.925 520.974 181.415C521.306 180.9 521.81 180.643 522.484 180.643C523.04 180.643 523.466 180.825 523.763 181.189C524.059 181.554 524.207 181.996 524.207 182.516V182.68H519.955V183.691H525.485V183.172C525.485 182.078 525.221 181.21 524.692 180.567C524.164 179.925 523.41 179.604 522.43 179.604C521.45 179.604 520.661 179.948 520.064 180.636C519.472 181.324 519.176 182.21 519.176 183.295V183.514ZM525.937 179.809L528.671 187H529.642L532.376 179.809H531.173L529.45 184.607C529.386 184.79 529.332 184.961 529.286 185.12C529.245 185.28 529.215 185.405 529.197 185.496H529.156C529.138 185.405 529.106 185.28 529.061 185.12C529.02 184.961 528.967 184.79 528.903 184.607L527.167 179.809H525.937ZM532.861 183.514C532.861 184.598 533.158 185.485 533.75 186.173C534.347 186.861 535.204 187.205 536.32 187.205C537.004 187.205 537.583 187.057 538.057 186.761C538.535 186.465 538.888 186.146 539.116 185.804L538.296 185.154C538.091 185.428 537.824 185.665 537.496 185.865C537.168 186.066 536.776 186.166 536.32 186.166C535.582 186.166 535.037 185.911 534.687 185.4C534.336 184.885 534.16 184.257 534.16 183.514V183.295C534.16 182.552 534.326 181.925 534.659 181.415C534.992 180.9 535.495 180.643 536.17 180.643C536.726 180.643 537.152 180.825 537.448 181.189C537.744 181.554 537.893 181.996 537.893 182.516V182.68H533.641V183.691H539.171V183.172C539.171 182.078 538.907 181.21 538.378 180.567C537.849 179.925 537.095 179.604 536.115 179.604C535.135 179.604 534.347 179.948 533.75 180.636C533.158 181.324 532.861 182.21 532.861 183.295V183.514ZM540.729 187H542.001V181.941C542.138 181.622 542.35 181.356 542.637 181.142C542.924 180.927 543.272 180.82 543.683 180.82C543.801 180.82 543.91 180.825 544.011 180.834C544.111 180.843 544.207 180.857 544.298 180.875V179.699C544.252 179.681 544.175 179.66 544.065 179.638C543.956 179.615 543.851 179.604 543.751 179.604C543.341 179.604 542.988 179.717 542.691 179.945C542.395 180.169 542.156 180.431 541.974 180.731H541.933L541.878 179.809H540.729V187ZM544.407 188.49L545.125 188.989C545.485 188.684 545.774 188.322 545.993 187.902C546.212 187.483 546.321 187.023 546.321 186.521V185.496H545.091V186.521C545.091 186.932 545.032 187.289 544.913 187.595C544.795 187.9 544.626 188.199 544.407 188.49ZM410.054 206.45C410.054 207.416 410.268 208.107 410.696 208.521C411.129 208.932 411.708 209.137 412.433 209.137C412.888 209.137 413.303 209.043 413.677 208.856C414.055 208.665 414.374 208.405 414.634 208.077H414.675L414.729 209H415.878V201.809H414.606V206.895C414.433 207.241 414.192 207.523 413.882 207.742C413.572 207.961 413.214 208.07 412.809 208.07C412.335 208.07 411.968 207.947 411.708 207.701C411.453 207.451 411.325 207.038 411.325 206.464V201.809H410.054V206.45ZM417.901 209H419.173V203.914C419.346 203.568 419.588 203.285 419.897 203.066C420.207 202.848 420.565 202.738 420.971 202.738C421.445 202.738 421.809 202.864 422.064 203.114C422.324 203.36 422.454 203.771 422.454 204.345V209H423.726V204.358C423.726 203.392 423.509 202.704 423.076 202.294C422.648 201.879 422.071 201.672 421.347 201.672C420.891 201.672 420.474 201.768 420.096 201.959C419.722 202.146 419.405 202.403 419.146 202.731H419.104L419.05 201.809H417.901V209ZM424.669 202.779H428.771V201.809H424.669V202.779ZM425.954 207.223C425.954 207.906 426.109 208.408 426.419 208.727C426.733 209.046 427.153 209.205 427.677 209.205C427.905 209.205 428.114 209.185 428.306 209.144C428.497 209.103 428.652 209.055 428.771 209V207.961C428.643 208.007 428.518 208.043 428.395 208.07C428.271 208.098 428.146 208.111 428.019 208.111C427.745 208.111 427.545 208.043 427.417 207.906C427.289 207.77 427.226 207.542 427.226 207.223V200.031H425.954V202.191V202.396V207.223ZM430.186 209H431.457V201.809H430.186V209ZM430.028 199.635C430.028 199.849 430.097 200.029 430.233 200.175C430.37 200.321 430.566 200.394 430.821 200.394C431.076 200.394 431.272 200.321 431.409 200.175C431.546 200.029 431.614 199.849 431.614 199.635C431.614 199.421 431.546 199.241 431.409 199.095C431.272 198.949 431.076 198.876 430.821 198.876C430.566 198.876 430.37 198.949 430.233 199.095C430.097 199.241 430.028 199.421 430.028 199.635ZM433.597 209H434.868V198.5H433.597V209ZM439.694 211.844C439.822 211.889 439.956 211.924 440.098 211.946C440.239 211.969 440.401 211.98 440.583 211.98C441.13 211.98 441.59 211.803 441.964 211.447C442.342 211.092 442.645 210.595 442.873 209.957L445.792 201.809H444.589L443.003 206.539C442.944 206.721 442.887 206.892 442.832 207.052C442.782 207.211 442.736 207.359 442.695 207.496H442.654C442.618 207.359 442.575 207.211 442.524 207.052C442.474 206.892 442.417 206.721 442.354 206.539L440.651 201.809H439.421L442.101 208.966V208.973C441.836 209.77 441.586 210.287 441.349 210.524C441.112 210.766 440.834 210.887 440.515 210.887C440.378 210.887 440.237 210.875 440.091 210.853C439.945 210.83 439.813 210.8 439.694 210.764V211.844ZM446.264 205.514C446.264 206.598 446.571 207.485 447.187 208.173C447.802 208.861 448.624 209.205 449.654 209.205C450.684 209.205 451.507 208.861 452.122 208.173C452.737 207.485 453.045 206.598 453.045 205.514V205.295C453.045 204.21 452.737 203.324 452.122 202.636C451.507 201.948 450.684 201.604 449.654 201.604C448.624 201.604 447.802 201.948 447.187 202.636C446.571 203.324 446.264 204.21 446.264 205.295V205.514ZM447.562 205.295C447.562 204.552 447.738 203.925 448.089 203.415C448.44 202.9 448.962 202.643 449.654 202.643C450.347 202.643 450.869 202.9 451.22 203.415C451.571 203.925 451.746 204.552 451.746 205.295V205.514C451.746 206.257 451.571 206.885 451.22 207.4C450.869 207.911 450.347 208.166 449.654 208.166C448.962 208.166 448.44 207.911 448.089 207.4C447.738 206.885 447.562 206.257 447.562 205.514V205.295ZM454.569 206.45C454.569 207.416 454.784 208.107 455.212 208.521C455.645 208.932 456.224 209.137 456.948 209.137C457.404 209.137 457.819 209.043 458.192 208.856C458.571 208.665 458.89 208.405 459.149 208.077H459.19L459.245 209H460.394V201.809H459.122V206.895C458.949 207.241 458.707 207.523 458.397 207.742C458.088 207.961 457.73 208.07 457.324 208.07C456.85 208.07 456.483 207.947 456.224 207.701C455.968 207.451 455.841 207.038 455.841 206.464V201.809H454.569V206.45ZM465.671 210.941C466.017 211.242 466.441 211.491 466.942 211.687C467.444 211.882 467.991 211.98 468.583 211.98C469.54 211.98 470.317 211.712 470.914 211.174C471.511 210.636 471.81 209.866 471.81 208.863V201.809H470.661L470.606 202.745H470.565C470.383 202.449 470.103 202.196 469.725 201.986C469.351 201.777 468.913 201.672 468.412 201.672C467.501 201.672 466.771 202.014 466.225 202.697C465.678 203.381 465.404 204.247 465.404 205.295V205.514C465.404 206.562 465.678 207.428 466.225 208.111C466.771 208.795 467.501 209.137 468.412 209.137C468.913 209.137 469.34 209.048 469.69 208.87C470.046 208.688 470.328 208.449 470.538 208.152V208.863C470.538 209.501 470.36 209.996 470.005 210.347C469.649 210.698 469.164 210.873 468.549 210.873C468.093 210.873 467.683 210.782 467.318 210.6C466.954 210.422 466.671 210.217 466.471 209.984L465.671 210.941ZM466.703 205.514V205.295C466.703 204.566 466.863 203.953 467.182 203.456C467.501 202.959 468.002 202.711 468.686 202.711C469.141 202.711 469.529 202.836 469.848 203.087C470.167 203.338 470.397 203.622 470.538 203.941V206.867C470.397 207.186 470.167 207.471 469.848 207.722C469.529 207.972 469.141 208.098 468.686 208.098C468.002 208.098 467.501 207.849 467.182 207.353C466.863 206.856 466.703 206.243 466.703 205.514ZM473.402 205.514C473.402 206.598 473.699 207.485 474.291 208.173C474.888 208.861 475.745 209.205 476.861 209.205C477.545 209.205 478.124 209.057 478.598 208.761C479.076 208.465 479.429 208.146 479.657 207.804L478.837 207.154C478.632 207.428 478.365 207.665 478.037 207.865C477.709 208.066 477.317 208.166 476.861 208.166C476.123 208.166 475.578 207.911 475.228 207.4C474.877 206.885 474.701 206.257 474.701 205.514V205.295C474.701 204.552 474.868 203.925 475.2 203.415C475.533 202.9 476.036 202.643 476.711 202.643C477.267 202.643 477.693 202.825 477.989 203.189C478.285 203.554 478.434 203.996 478.434 204.516V204.68H474.182V205.691H479.712V205.172C479.712 204.078 479.448 203.21 478.919 202.567C478.39 201.925 477.636 201.604 476.656 201.604C475.676 201.604 474.888 201.948 474.291 202.636C473.699 203.324 473.402 204.21 473.402 205.295V205.514ZM480.259 202.779H484.36V201.809H480.259V202.779ZM481.544 207.223C481.544 207.906 481.699 208.408 482.009 208.727C482.323 209.046 482.743 209.205 483.267 209.205C483.494 209.205 483.704 209.185 483.896 209.144C484.087 209.103 484.242 209.055 484.36 209V207.961C484.233 208.007 484.107 208.043 483.984 208.07C483.861 208.098 483.736 208.111 483.608 208.111C483.335 208.111 483.134 208.043 483.007 207.906C482.879 207.77 482.815 207.542 482.815 207.223V200.031H481.544V202.191V202.396V207.223ZM488.735 206.881C488.735 207.61 488.975 208.168 489.453 208.556C489.932 208.943 490.513 209.137 491.196 209.137C491.789 209.137 492.272 209.023 492.646 208.795C493.024 208.567 493.297 208.305 493.466 208.009C493.479 208.191 493.511 208.373 493.562 208.556C493.616 208.738 493.675 208.886 493.739 209H494.97V208.891C494.888 208.69 494.824 208.46 494.778 208.2C494.733 207.936 494.71 207.656 494.71 207.359V204.078C494.71 203.258 494.471 202.64 493.992 202.226C493.518 201.811 492.848 201.604 491.982 201.604C491.117 201.604 490.428 201.818 489.918 202.246C489.412 202.67 489.159 203.167 489.159 203.736V203.771H490.424V203.736C490.424 203.44 490.54 203.18 490.772 202.957C491.009 202.729 491.401 202.615 491.948 202.615C492.495 202.615 492.88 202.752 493.104 203.025C493.327 203.294 493.438 203.645 493.438 204.078V204.57H491.812C490.918 204.57 490.182 204.773 489.604 205.179C489.025 205.584 488.735 206.152 488.735 206.881ZM490.007 206.812C490.007 206.402 490.171 206.076 490.499 205.835C490.827 205.593 491.31 205.473 491.948 205.473H493.438V206.505C493.438 206.892 493.236 207.259 492.83 207.605C492.424 207.952 491.971 208.125 491.47 208.125C490.968 208.125 490.599 208.009 490.362 207.776C490.125 207.544 490.007 207.223 490.007 206.812ZM500.261 209H501.573V204.604H505.75V203.524H501.573V200.127H506.427V199.047H500.261V209ZM507.206 206.881C507.206 207.61 507.445 208.168 507.924 208.556C508.402 208.943 508.983 209.137 509.667 209.137C510.259 209.137 510.743 209.023 511.116 208.795C511.494 208.567 511.768 208.305 511.937 208.009C511.95 208.191 511.982 208.373 512.032 208.556C512.087 208.738 512.146 208.886 512.21 209H513.44V208.891C513.358 208.69 513.295 208.46 513.249 208.2C513.203 207.936 513.181 207.656 513.181 207.359V204.078C513.181 203.258 512.941 202.64 512.463 202.226C511.989 201.811 511.319 201.604 510.453 201.604C509.587 201.604 508.899 201.818 508.389 202.246C507.883 202.67 507.63 203.167 507.63 203.736V203.771H508.895V203.736C508.895 203.44 509.011 203.18 509.243 202.957C509.48 202.729 509.872 202.615 510.419 202.615C510.966 202.615 511.351 202.752 511.574 203.025C511.798 203.294 511.909 203.645 511.909 204.078V204.57H510.282C509.389 204.57 508.653 204.773 508.074 205.179C507.495 205.584 507.206 206.152 507.206 206.881ZM508.478 206.812C508.478 206.402 508.642 206.076 508.97 205.835C509.298 205.593 509.781 205.473 510.419 205.473H511.909V206.505C511.909 206.892 511.706 207.259 511.301 207.605C510.895 207.952 510.442 208.125 509.94 208.125C509.439 208.125 509.07 208.009 508.833 207.776C508.596 207.544 508.478 207.223 508.478 206.812ZM514.732 205.514C514.732 206.598 515.026 207.485 515.614 208.173C516.207 208.861 517.02 209.205 518.055 209.205C519.012 209.205 519.739 208.948 520.235 208.433C520.732 207.913 520.98 207.334 520.98 206.696V206.662H519.75V206.696C519.75 207.084 519.616 207.425 519.347 207.722C519.078 208.018 518.647 208.166 518.055 208.166C517.362 208.166 516.852 207.911 516.523 207.4C516.195 206.885 516.031 206.257 516.031 205.514V205.295C516.031 204.552 516.195 203.925 516.523 203.415C516.852 202.9 517.362 202.643 518.055 202.643C518.647 202.643 519.078 202.791 519.347 203.087C519.616 203.383 519.75 203.725 519.75 204.112V204.146H520.98V204.112C520.98 203.474 520.732 202.898 520.235 202.383C519.739 201.863 519.012 201.604 518.055 201.604C517.02 201.604 516.207 201.948 515.614 202.636C515.026 203.324 514.732 204.21 514.732 205.295V205.514ZM522.033 205.514C522.033 206.598 522.329 207.485 522.922 208.173C523.519 208.861 524.376 209.205 525.492 209.205C526.176 209.205 526.755 209.057 527.229 208.761C527.707 208.465 528.06 208.146 528.288 207.804L527.468 207.154C527.263 207.428 526.996 207.665 526.668 207.865C526.34 208.066 525.948 208.166 525.492 208.166C524.754 208.166 524.209 207.911 523.858 207.4C523.507 206.885 523.332 206.257 523.332 205.514V205.295C523.332 204.552 523.498 203.925 523.831 203.415C524.164 202.9 524.667 202.643 525.342 202.643C525.898 202.643 526.324 202.825 526.62 203.189C526.916 203.554 527.064 203.996 527.064 204.516V204.68H522.812V205.691H528.343V205.172C528.343 204.078 528.078 203.21 527.55 202.567C527.021 201.925 526.267 201.604 525.287 201.604C524.307 201.604 523.519 201.948 522.922 202.636C522.329 203.324 522.033 204.21 522.033 205.295V205.514Z" fill="#312F3F"/>
    <rect width="294" height="32" rx="8" transform="matrix(-1 0 0 1 1010 0)" fill="#E8E8E8"/>
    <rect width="294" height="32" rx="8" transform="matrix(-1 0 0 1 1010 36)" fill="#E8E8E8"/>
    <path d="M652 116C652 98.3269 666.327 84 684 84H978C995.673 84 1010 98.3269 1010 116V154C1010 171.673 995.673 186 978 186H684C666.327 186 652 171.673 652 154V116Z" fill="#E8E8E8"/>
    <path d="M687.125 132.172C687.125 133.297 687.44 134.203 688.07 134.891C688.706 135.578 689.539 135.922 690.57 135.922C691.602 135.922 692.427 135.578 693.047 134.891C693.672 134.203 693.984 133.297 693.984 132.172H693.445C693.445 132.979 693.185 133.604 692.664 134.047C692.148 134.49 691.552 134.711 690.875 134.711C690.146 134.711 689.581 134.492 689.18 134.055C688.784 133.612 688.586 132.984 688.586 132.172C688.586 131.354 688.786 130.724 689.188 130.281C689.589 129.833 690.151 129.609 690.875 129.609C691.604 129.609 692.206 129.893 692.68 130.461C693.159 131.023 693.398 131.984 693.398 133.344V133.727C693.398 135.419 692.979 136.688 692.141 137.531C691.302 138.375 690.159 138.797 688.711 138.797H688.555V140.008H688.719C690.677 140.008 692.185 139.411 693.242 138.219C694.305 137.026 694.836 135.505 694.836 133.656V133.422C694.836 131.651 694.448 130.37 693.672 129.578C692.896 128.786 691.964 128.391 690.875 128.391C689.792 128.391 688.896 128.74 688.188 129.438C687.479 130.135 687.125 131.047 687.125 132.172ZM696.078 132.172C696.078 133.297 696.393 134.203 697.023 134.891C697.659 135.578 698.492 135.922 699.523 135.922C700.555 135.922 701.38 135.578 702 134.891C702.625 134.203 702.938 133.297 702.938 132.172H702.398C702.398 132.979 702.138 133.604 701.617 134.047C701.102 134.49 700.505 134.711 699.828 134.711C699.099 134.711 698.534 134.492 698.133 134.055C697.737 133.612 697.539 132.984 697.539 132.172C697.539 131.354 697.74 130.724 698.141 130.281C698.542 129.833 699.104 129.609 699.828 129.609C700.557 129.609 701.159 129.893 701.633 130.461C702.112 131.023 702.352 131.984 702.352 133.344V133.727C702.352 135.419 701.932 136.688 701.094 137.531C700.255 138.375 699.112 138.797 697.664 138.797H697.508V140.008H697.672C699.63 140.008 701.138 139.411 702.195 138.219C703.258 137.026 703.789 135.505 703.789 133.656V133.422C703.789 131.651 703.401 130.37 702.625 129.578C701.849 128.786 700.917 128.391 699.828 128.391C698.745 128.391 697.849 128.74 697.141 129.438C696.432 130.135 696.078 131.047 696.078 132.172ZM705.031 132.172C705.031 133.297 705.346 134.203 705.977 134.891C706.612 135.578 707.445 135.922 708.477 135.922C709.508 135.922 710.333 135.578 710.953 134.891C711.578 134.203 711.891 133.297 711.891 132.172H711.352C711.352 132.979 711.091 133.604 710.57 134.047C710.055 134.49 709.458 134.711 708.781 134.711C708.052 134.711 707.487 134.492 707.086 134.055C706.69 133.612 706.492 132.984 706.492 132.172C706.492 131.354 706.693 130.724 707.094 130.281C707.495 129.833 708.057 129.609 708.781 129.609C709.51 129.609 710.112 129.893 710.586 130.461C711.065 131.023 711.305 131.984 711.305 133.344V133.727C711.305 135.419 710.885 136.688 710.047 137.531C709.208 138.375 708.065 138.797 706.617 138.797H706.461V140.008H706.625C708.583 140.008 710.091 139.411 711.148 138.219C712.211 137.026 712.742 135.505 712.742 133.656V133.422C712.742 131.651 712.354 130.37 711.578 129.578C710.802 128.786 709.87 128.391 708.781 128.391C707.698 128.391 706.802 128.74 706.094 129.438C705.385 130.135 705.031 131.047 705.031 132.172Z" fill="#65646F"/>
    <g clip-path="url(#clip1_735_14106)">
        <circle cx="744" cy="135" r="12" fill="#FC9C03"/>
        <path d="M729.5 127.5L753 128.5L760 130L759 142L739 150.5L728.5 142L729.5 127.5Z" fill="#1576F2"/>
        <path d="M729.984 142L753.111 142.348L760 142.87L759.016 147.043L739.333 150L729 147.043L729.984 142Z" fill="#01738C"/>
        <path d="M729.5 127.5L758 124.5L757 131L735.5 136.5L729.5 127.5Z" fill="#C71431"/>
    </g>
    <path d="M765.164 136.414C765.164 137.565 765.482 138.49 766.117 139.188C766.758 139.88 767.646 140.229 768.781 140.234C769.906 140.234 770.792 139.885 771.438 139.188C772.083 138.49 772.406 137.565 772.406 136.414V132.211C772.406 131.06 772.083 130.135 771.438 129.438C770.792 128.74 769.906 128.391 768.781 128.391C767.646 128.391 766.758 128.74 766.117 129.438C765.482 130.135 765.164 131.06 765.164 132.211V136.414ZM766.648 136.492V132.133C766.648 131.393 766.823 130.789 767.172 130.32C767.521 129.846 768.057 129.609 768.781 129.609C769.51 129.609 770.049 129.846 770.398 130.32C770.747 130.789 770.922 131.393 770.922 132.133V136.492C770.922 137.232 770.747 137.839 770.398 138.312C770.049 138.781 769.51 139.016 768.781 139.016C768.057 139.016 767.521 138.781 767.172 138.312C766.823 137.839 766.648 137.232 766.648 136.492ZM773.414 140H775.023L777.484 136.234H777.57L780.516 131.828H778.906L776.602 135.477L776.508 135.484L773.414 140ZM773.57 131.828L776.516 136.234L776.578 136.242L779.039 140H780.664L777.57 135.484L777.508 135.477L775.203 131.828H773.57ZM781.617 136.984C781.617 138.016 781.971 138.815 782.68 139.383C783.393 139.951 784.268 140.234 785.305 140.234C786.341 140.234 787.211 139.951 787.914 139.383C788.622 138.815 788.977 138.016 788.977 136.984C788.977 136.302 788.789 135.721 788.414 135.242C788.044 134.758 787.57 134.401 786.992 134.172V134.141C787.435 133.922 787.815 133.586 788.133 133.133C788.456 132.68 788.617 132.138 788.617 131.508C788.617 130.56 788.297 129.805 787.656 129.242C787.021 128.674 786.237 128.391 785.305 128.391C784.372 128.391 783.583 128.677 782.938 129.25C782.297 129.818 781.977 130.57 781.977 131.508C781.977 132.138 782.135 132.68 782.453 133.133C782.776 133.581 783.161 133.917 783.609 134.141V134.172C783.031 134.401 782.555 134.758 782.18 135.242C781.805 135.727 781.617 136.307 781.617 136.984ZM783.055 136.906C783.055 136.276 783.26 135.766 783.672 135.375C784.083 134.984 784.628 134.789 785.305 134.789C785.982 134.789 786.521 134.984 786.922 135.375C787.328 135.766 787.531 136.276 787.531 136.906C787.531 137.536 787.328 138.047 786.922 138.438C786.521 138.823 785.982 139.016 785.305 139.016C784.628 139.016 784.083 138.823 783.672 138.438C783.26 138.047 783.055 137.536 783.055 136.906ZM783.391 131.578C783.391 131 783.565 130.529 783.914 130.164C784.263 129.794 784.727 129.609 785.305 129.609C785.883 129.609 786.344 129.794 786.688 130.164C787.031 130.529 787.203 131 787.203 131.578C787.203 132.156 787.029 132.633 786.68 133.008C786.336 133.383 785.878 133.57 785.305 133.57C784.732 133.57 784.268 133.383 783.914 133.008C783.565 132.633 783.391 132.156 783.391 131.578ZM795.383 140H796.766V128.625H795.445L790.156 136.352V137.328H798.352V136.109H796.359H795.773H791.836L795.289 130.992H795.383V136.5V136.891V140ZM799.984 139.211C799.984 139.477 800.07 139.703 800.242 139.891C800.414 140.078 800.661 140.172 800.984 140.172C801.307 140.172 801.555 140.078 801.727 139.891C801.898 139.703 801.984 139.477 801.984 139.211C801.984 138.94 801.898 138.711 801.727 138.523C801.555 138.336 801.307 138.242 800.984 138.242C800.661 138.242 800.414 138.336 800.242 138.523C800.07 138.711 799.984 138.94 799.984 139.211ZM804.484 139.211C804.484 139.477 804.57 139.703 804.742 139.891C804.914 140.078 805.161 140.172 805.484 140.172C805.807 140.172 806.055 140.078 806.227 139.891C806.398 139.703 806.484 139.477 806.484 139.211C806.484 138.94 806.398 138.711 806.227 138.523C806.055 138.336 805.807 138.242 805.484 138.242C805.161 138.242 804.914 138.336 804.742 138.523C804.57 138.711 804.484 138.94 804.484 139.211ZM808.586 136.414C808.586 137.565 808.904 138.49 809.539 139.188C810.18 139.88 811.068 140.229 812.203 140.234C813.328 140.234 814.214 139.885 814.859 139.188C815.505 138.49 815.828 137.565 815.828 136.414V132.211C815.828 131.06 815.505 130.135 814.859 129.438C814.214 128.74 813.328 128.391 812.203 128.391C811.068 128.391 810.18 128.74 809.539 129.438C808.904 130.135 808.586 131.06 808.586 132.211V136.414ZM810.07 136.492V132.133C810.07 131.393 810.245 130.789 810.594 130.32C810.943 129.846 811.479 129.609 812.203 129.609C812.932 129.609 813.471 129.846 813.82 130.32C814.169 130.789 814.344 131.393 814.344 132.133V136.492C814.344 137.232 814.169 137.839 813.82 138.312C813.471 138.781 812.932 139.016 812.203 139.016C811.479 139.016 810.943 138.781 810.594 138.312C810.245 137.839 810.07 137.232 810.07 136.492ZM817.531 140H824.977V138.727H819.352L822.531 135.336C823.13 134.701 823.635 134.083 824.047 133.484C824.458 132.88 824.664 132.211 824.664 131.477C824.664 130.638 824.346 129.914 823.711 129.305C823.076 128.695 822.242 128.391 821.211 128.391C820.169 128.391 819.294 128.721 818.586 129.383C817.883 130.044 817.531 130.896 817.531 131.938V132.016H818.984V131.938C818.984 131.203 819.198 130.633 819.625 130.227C820.057 129.815 820.586 129.609 821.211 129.609C821.836 129.609 822.326 129.802 822.68 130.188C823.034 130.568 823.211 131.023 823.211 131.555C823.211 132.076 823.07 132.56 822.789 133.008C822.513 133.456 822.107 133.964 821.57 134.531L817.531 138.93V140ZM826.789 140H828.078L828.133 138.938H828.18C828.388 139.276 828.706 139.565 829.133 139.805C829.565 140.039 830.065 140.156 830.633 140.156C831.669 140.156 832.497 139.768 833.117 138.992C833.737 138.211 834.047 137.227 834.047 136.039V135.789C834.047 134.596 833.737 133.612 833.117 132.836C832.497 132.06 831.669 131.672 830.633 131.672C830.065 131.672 829.578 131.776 829.172 131.984C828.771 132.188 828.451 132.458 828.211 132.797V128.031H826.789V140ZM828.211 137.586V134.242C828.372 133.878 828.635 133.555 829 133.273C829.365 132.987 829.807 132.844 830.328 132.844C831.109 132.844 831.68 133.128 832.039 133.695C832.404 134.258 832.586 134.956 832.586 135.789V136.039C832.586 136.872 832.404 137.573 832.039 138.141C831.68 138.703 831.109 138.984 830.328 138.984C829.807 138.984 829.365 138.844 829 138.562C828.635 138.276 828.372 137.951 828.211 137.586ZM836.016 140H843.172V138.789H837.492V134.742H842.375V133.523H837.492V129.836H843.094V128.625H836.016V140Z" fill="#312F3F"/>
    <path d="M926.148 136.414C926.148 137.565 926.466 138.49 927.102 139.188C927.742 139.88 928.63 140.229 929.766 140.234C930.891 140.234 931.776 139.885 932.422 139.188C933.068 138.49 933.391 137.565 933.391 136.414V132.211C933.391 131.06 933.068 130.135 932.422 129.438C931.776 128.74 930.891 128.391 929.766 128.391C928.63 128.391 927.742 128.74 927.102 129.438C926.466 130.135 926.148 131.06 926.148 132.211V136.414ZM927.633 136.492V132.133C927.633 131.393 927.807 130.789 928.156 130.32C928.505 129.846 929.042 129.609 929.766 129.609C930.495 129.609 931.034 129.846 931.383 130.32C931.732 130.789 931.906 131.393 931.906 132.133V136.492C931.906 137.232 931.732 137.839 931.383 138.312C931.034 138.781 930.495 139.016 929.766 139.016C929.042 139.016 928.505 138.781 928.156 138.312C927.807 137.839 927.633 137.232 927.633 136.492ZM935.5 139.211C935.5 139.477 935.586 139.703 935.758 139.891C935.93 140.078 936.177 140.172 936.5 140.172C936.823 140.172 937.07 140.078 937.242 139.891C937.414 139.703 937.5 139.477 937.5 139.211C937.5 138.94 937.414 138.711 937.242 138.523C937.07 138.336 936.823 138.242 936.5 138.242C936.177 138.242 935.93 138.336 935.758 138.523C935.586 138.711 935.5 138.94 935.5 139.211ZM939.594 140H947.039V138.727H941.414L944.594 135.336C945.193 134.701 945.698 134.083 946.109 133.484C946.521 132.88 946.727 132.211 946.727 131.477C946.727 130.638 946.409 129.914 945.773 129.305C945.138 128.695 944.305 128.391 943.273 128.391C942.232 128.391 941.357 128.721 940.648 129.383C939.945 130.044 939.594 130.896 939.594 131.938V132.016H941.047V131.938C941.047 131.203 941.26 130.633 941.688 130.227C942.12 129.815 942.648 129.609 943.273 129.609C943.898 129.609 944.388 129.802 944.742 130.188C945.096 130.568 945.273 131.023 945.273 131.555C945.273 132.076 945.133 132.56 944.852 133.008C944.576 133.456 944.169 133.964 943.633 134.531L939.594 138.93V140Z" fill="#65646F"/>
    <path d="M971 134.091L966 125L961 134.091L966 136.364L971 134.091Z" fill="#C4C4CC"/>
    <path d="M961 136.818L966 139.091L971 136.818L966 145C964.333 142.802 961 136.818 961 136.818Z" fill="#C4C4CC"/>
    <rect width="294" height="32" rx="8" transform="matrix(-1 0 0 1 1010 202)" fill="#E8E8E8"/>
    <rect width="294" height="32" rx="8" transform="matrix(-1 0 0 1 1010 238)" fill="#E8E8E8"/>
    <rect width="294" height="32" rx="8" transform="matrix(-1 0 0 1 1010 274)" fill="#E8E8E8"/>
    <defs>
        <linearGradient id="paint0_linear_735_14106" x1="32" y1="31" x2="47.322" y2="33.1547" gradientUnits="userSpaceOnUse">
            <stop stop-color="#DFAE30"/>
            <stop offset="1" stop-color="#D16E92"/>
        </linearGradient>
        <linearGradient id="paint1_linear_735_14106" x1="54" y1="39" x2="86" y2="63" gradientUnits="userSpaceOnUse">
            <stop stop-color="#DFAE30"/>
            <stop offset="1" stop-color="#D16E92"/>
        </linearGradient>
        <linearGradient id="paint2_linear_735_14106" x1="0" y1="0" x2="113.271" y2="226.75" gradientUnits="userSpaceOnUse">
            <stop stop-color="#DFAE30"/>
            <stop offset="1" stop-color="#D16E92"/>
        </linearGradient>
        <clipPath id="clip0_735_14106">
            <path d="M106 51C106 44.3726 111.373 39 118 39V39C124.627 39 130 44.3726 130 51V51C130 57.6274 124.627 63 118 63V63C111.373 63 106 57.6274 106 51V51Z" fill="white"/>
        </clipPath>
        <clipPath id="clip1_735_14106">
            <path d="M732 135C732 128.373 737.373 123 744 123C750.627 123 756 128.373 756 135C756 141.627 750.627 147 744 147C737.373 147 732 141.627 732 135Z" fill="white"/>
        </clipPath>
    </defs>
</svg>
