<svg width="24" height="24" viewBox="0 0 24 24" fill="none" xmlns="http://www.w3.org/2000/svg">
    <path fill-rule="evenodd" clip-rule="evenodd" d="M7 2C7.55228 2 8 2.44772 8 3V4H16V3C16 2.44772 16.4477 2 17 2C17.5523 2 18 2.44772 18 3V4C20.7614 4 23 6.23858 23 9V17C23 19.7614 20.7614 22 18 22H6C3.23858 22 1 19.7614 1 17V9C1 6.23858 3.23858 4 6 4V3C6 2.44772 6.44772 2 7 2ZM6 6C4.34315 6 3 7.34315 3 9V9.5H21V9C21 7.34315 19.6569 6 18 6H6ZM21 11.5H3V17C3 18.6569 4.34315 20 6 20H18C19.6569 20 21 18.6569 21 17V11.5Z" fill="currentColor"/>
</svg>
