<svg width="24" height="24" viewBox="0 0 24 24" fill="none" xmlns="http://www.w3.org/2000/svg">
    <path fill-rule="evenodd" clip-rule="evenodd" d="M2.59365 5.47876C3.54742 4.56282 4.85228 4 6.28571 4H17.7143C19.1477 4 20.4526 4.56282 21.4063 5.47876C22.386 6.41957 23 7.73837 23 9.2V14.8C23 17.6908 20.6144 20 17.7143 20H6.28571C3.38564 20 1 17.6908 1 14.8V9.2C1 7.73837 1.61399 6.41957 2.59365 5.47876ZM4.9482 6.27601L11.363 11.5765C11.7327 11.882 12.2673 11.882 12.637 11.5765L19.0518 6.27601C18.644 6.09874 18.1917 6 17.7143 6H6.28571C5.80833 6 5.35603 6.09874 4.9482 6.27601ZM20.57 7.61593L13.9109 13.1182C12.8018 14.0347 11.1982 14.0347 10.0891 13.1182L3.42997 7.61593C3.15545 8.08408 3 8.62473 3 9.2V14.8C3 16.5484 4.45192 18 6.28571 18H17.7143C19.5481 18 21 16.5484 21 14.8V9.2C21 8.62473 20.8445 8.08408 20.57 7.61593Z" fill="#65646F"/>
</svg>
