<svg width="24" height="24" viewBox="0 0 24 24" fill="none" xmlns="http://www.w3.org/2000/svg">
    <path fill-rule="evenodd" clip-rule="evenodd" d="M18.4173 4.09147C18.9192 4.32194 19.1392 4.91563 18.9088 5.41754L12.4802 19.4175C12.3472 19.7072 12.0841 19.9161 11.7718 19.98C11.4595 20.0438 11.1355 19.955 10.8994 19.7408L5.32802 14.6852C4.91902 14.3141 4.88832 13.6817 5.25945 13.2727C5.63058 12.8637 6.263 12.833 6.672 13.2041L11.2324 17.3422L17.0912 4.58295C17.3217 4.08105 17.9154 3.86101 18.4173 4.09147Z" fill="currentColor"/>
</svg>
