<svg width="40" height="40" viewBox="0 0 40 40" fill="none" xmlns="http://www.w3.org/2000/svg">
    <rect x="0.5" y="0.5" width="39" height="39" rx="15.5" fill="#E8E8E8"/>
    <path fill-rule="evenodd" clip-rule="evenodd" d="M25.3491 13.4094C25.7673 13.6014 25.9507 14.0962 25.7586 14.5144L20.4015 26.1811C20.2906 26.4225 20.0714 26.5965 19.8111 26.6498C19.5509 26.703 19.2809 26.629 19.0842 26.4505L14.4413 22.2375C14.1005 21.9282 14.0749 21.4012 14.3842 21.0604C14.6934 20.7195 15.2205 20.694 15.5613 21.0032L19.3616 24.4517L24.244 13.8189C24.4361 13.4007 24.9308 13.2173 25.3491 13.4094Z" fill="#65646F"/>
    <rect x="0.5" y="0.5" width="39" height="39" rx="15.5" stroke="#C4C4CC"/>
</svg>
