<svg width="24" height="24" viewBox="0 0 24 24" fill="none" xmlns="http://www.w3.org/2000/svg">
    <path fill-rule="evenodd" clip-rule="evenodd" d="M12 4C10.1165 4 8.625 5.4904 8.625 7.28571C8.625 9.08103 10.1165 10.5714 12 10.5714C13.8835 10.5714 15.375 9.08103 15.375 7.28571C15.375 5.4904 13.8835 4 12 4ZM6.625 7.28571C6.625 4.34716 9.05101 2 12 2C14.949 2 17.375 4.34716 17.375 7.28571C17.375 10.2243 14.949 12.5714 12 12.5714C9.05101 12.5714 6.625 10.2243 6.625 7.28571ZM7.64233 18.1693C6.56386 18.9617 6 19.9741 6 21C6 21.5523 5.55228 22 5 22C4.44772 22 4 21.5523 4 21C4 19.1855 5.00314 17.6266 6.45818 16.5576C7.91372 15.4882 9.87631 14.8571 12 14.8571C14.1237 14.8571 16.0863 15.4882 17.5418 16.5576C18.9969 17.6266 20 19.1855 20 21C20 21.5523 19.5523 22 19 22C18.4477 22 18 21.5523 18 21C18 19.9741 17.4361 18.9617 16.3577 18.1693C15.2797 17.3774 13.7423 16.8571 12 16.8571C10.2577 16.8571 8.72029 17.3774 7.64233 18.1693Z" fill="#C4C4CC"/>
</svg>
